,mean_fit_time,std_fit_time,mean_score_time,std_score_time,param_C,param_decision_function_shape,param_kernel,params,split0_test_score,split1_test_score,split2_test_score,split3_test_score,split4_test_score,mean_test_score,std_test_score,rank_test_score,Timestamp
0,513.6326306343078,30.144354613551016,118.37024459838867,10.699839670983833,0.0001,ovr,linear,"{'C': 0.0001, 'decision_function_shape': 'ovr', 'kernel': 'linear'}",0.8246221089054817,0.8277180841376799,0.8401019850664724,0.8320888727007831,0.8333636860316882,0.8315789473684212,0.0052799877619000325,9,2021-05-02 21:38:53.627189
1,531.2187727928161,39.129294356666065,125.97990455627442,9.912750014236108,0.0001,ovo,linear,"{'C': 0.0001, 'decision_function_shape': 'ovo', 'kernel': 'linear'}",0.8246221089054817,0.8277180841376799,0.8401019850664724,0.8320888727007831,0.8333636860316882,0.8315789473684212,0.0052799877619000325,9,2021-05-02 21:38:53.627189
2,180.72158746719361,6.760378836509456,61.9758083820343,6.239127178856089,0.001,ovr,linear,"{'C': 0.001, 'decision_function_shape': 'ovr', 'kernel': 'linear'}",0.9923511200145693,0.9883445638317246,0.9943543981059916,0.9914405390639228,0.9932617009652158,0.9919504643962848,0.0020455466883407586,7,2021-05-02 21:38:53.627189
3,165.96181058883667,14.588104834217905,65.4717755317688,5.425487935724696,0.001,ovo,linear,"{'C': 0.001, 'decision_function_shape': 'ovo', 'kernel': 'linear'}",0.9923511200145693,0.9883445638317246,0.9943543981059916,0.9914405390639228,0.9932617009652158,0.9919504643962848,0.0020455466883407586,7,2021-05-02 21:38:53.627189
4,73.36727452278137,7.648659706050517,21.31242880821228,2.2134733822810375,0.01,ovr,linear,"{'C': 0.01, 'decision_function_shape': 'ovr', 'kernel': 'linear'}",1.0,1.0,1.0,1.0,1.0,1.0,0.0,1,2021-05-02 21:38:53.627189
5,75.6006489276886,5.2113644623596755,21.379140377044678,2.4662574681921736,0.01,ovo,linear,"{'C': 0.01, 'decision_function_shape': 'ovo', 'kernel': 'linear'}",1.0,1.0,1.0,1.0,1.0,1.0,0.0,1,2021-05-02 21:38:53.627189
6,69.3019670009613,7.528413028570384,18.17553267478943,0.7590896318159356,0.1,ovr,linear,"{'C': 0.1, 'decision_function_shape': 'ovr', 'kernel': 'linear'}",1.0,1.0,1.0,1.0,1.0,1.0,0.0,1,2021-05-02 21:38:53.627189
7,70.14039421081543,8.637050221743763,15.917214584350585,2.0978890399461854,0.1,ovo,linear,"{'C': 0.1, 'decision_function_shape': 'ovo', 'kernel': 'linear'}",1.0,1.0,1.0,1.0,1.0,1.0,0.0,1,2021-05-02 21:38:53.627189
8,68.85570778846741,6.533420059672712,15.185732889175416,2.9409138797822836,1,ovr,linear,"{'C': 1, 'decision_function_shape': 'ovr', 'kernel': 'linear'}",1.0,1.0,1.0,1.0,1.0,1.0,0.0,1,2021-05-02 21:38:53.627189
9,51.42547478675842,7.350241468568642,8.578879261016846,1.4198728259197428,1,ovo,linear,"{'C': 1, 'decision_function_shape': 'ovo', 'kernel': 'linear'}",1.0,1.0,1.0,1.0,1.0,1.0,0.0,1,2021-05-02 21:38:53.627189
