,mean_fit_time,std_fit_time,mean_score_time,std_score_time,param_C,param_coef0,param_decision_function_shape,param_kernel,params,split0_test_score,split1_test_score,split2_test_score,split3_test_score,split4_test_score,mean_test_score,std_test_score,rank_test_score,Timestamp
0,1344.8438978672027,6.14300478360482,143.66904931068422,2.143782100607036,0.0001,0.0001,ovr,sigmoid,"{'C': 0.0001, 'coef0': 0.0001, 'decision_function_shape': 'ovr', 'kernel': 'sigmoid'}",0.04698597705336005,0.04716809324348935,0.04716809324348935,0.04716809324348935,0.04716809324348935,0.04713167000546349,7.284647605171889e-05,39,2021-05-04 10:43:51.076062
1,1342.3456056594848,2.4953711330666106,144.21786303520201,2.657245316440795,0.0001,0.0001,ovo,sigmoid,"{'C': 0.0001, 'coef0': 0.0001, 'decision_function_shape': 'ovo', 'kernel': 'sigmoid'}",0.04698597705336005,0.04716809324348935,0.04716809324348935,0.04716809324348935,0.04716809324348935,0.04713167000546349,7.284647605171889e-05,39,2021-05-04 10:43:51.076062
2,1343.815270805359,10.360368790352265,143.68569922447205,2.0642049470885,0.0001,0.001,ovr,sigmoid,"{'C': 0.0001, 'coef0': 0.001, 'decision_function_shape': 'ovr', 'kernel': 'sigmoid'}",0.04698597705336005,0.04716809324348935,0.04716809324348935,0.04716809324348935,0.04716809324348935,0.04713167000546349,7.284647605171889e-05,39,2021-05-04 10:43:51.076062
3,1344.6777439594268,6.834528894752606,143.59672937393188,3.553443876241086,0.0001,0.001,ovo,sigmoid,"{'C': 0.0001, 'coef0': 0.001, 'decision_function_shape': 'ovo', 'kernel': 'sigmoid'}",0.04698597705336005,0.04716809324348935,0.04716809324348935,0.04716809324348935,0.04716809324348935,0.04713167000546349,7.284647605171889e-05,39,2021-05-04 10:43:51.076062
4,1345.3674948692321,5.3562950337133985,144.11075472831726,2.6226289666556934,0.0001,0.01,ovr,sigmoid,"{'C': 0.0001, 'coef0': 0.01, 'decision_function_shape': 'ovr', 'kernel': 'sigmoid'}",0.04698597705336005,0.04716809324348935,0.04716809324348935,0.04716809324348935,0.04716809324348935,0.04713167000546349,7.284647605171889e-05,39,2021-05-04 10:43:51.076062
5,1342.233232975006,7.426258077588561,144.256560754776,1.7357099612471294,0.0001,0.01,ovo,sigmoid,"{'C': 0.0001, 'coef0': 0.01, 'decision_function_shape': 'ovo', 'kernel': 'sigmoid'}",0.04698597705336005,0.04716809324348935,0.04716809324348935,0.04716809324348935,0.04716809324348935,0.04713167000546349,7.284647605171889e-05,39,2021-05-04 10:43:51.076062
6,1347.2124922275543,8.91119984981338,143.44388604164124,3.106036651823611,0.0001,0.1,ovr,sigmoid,"{'C': 0.0001, 'coef0': 0.1, 'decision_function_shape': 'ovr', 'kernel': 'sigmoid'}",0.04698597705336005,0.04716809324348935,0.04716809324348935,0.04716809324348935,0.04716809324348935,0.04713167000546349,7.284647605171889e-05,39,2021-05-04 10:43:51.076062
7,1342.8557620048523,8.522047993756772,145.02481813430785,2.5289844973566016,0.0001,0.1,ovo,sigmoid,"{'C': 0.0001, 'coef0': 0.1, 'decision_function_shape': 'ovo', 'kernel': 'sigmoid'}",0.04698597705336005,0.04716809324348935,0.04716809324348935,0.04716809324348935,0.04716809324348935,0.04713167000546349,7.284647605171889e-05,39,2021-05-04 10:43:51.076062
8,1354.9569342136383,9.535701059178324,145.1482886791229,2.4960295355683435,0.0001,1,ovr,sigmoid,"{'C': 0.0001, 'coef0': 1, 'decision_function_shape': 'ovr', 'kernel': 'sigmoid'}",0.04698597705336005,0.04716809324348935,0.04716809324348935,0.04716809324348935,0.04716809324348935,0.04713167000546349,7.284647605171889e-05,39,2021-05-04 10:43:51.076062
9,1359.8170209407806,7.701749733420613,144.08095383644104,2.4460165753042507,0.0001,1,ovo,sigmoid,"{'C': 0.0001, 'coef0': 1, 'decision_function_shape': 'ovo', 'kernel': 'sigmoid'}",0.04698597705336005,0.04716809324348935,0.04716809324348935,0.04716809324348935,0.04716809324348935,0.04713167000546349,7.284647605171889e-05,39,2021-05-04 10:43:51.076062
10,1342.9245396614074,10.987231077614629,142.02385296821595,3.7593405549160126,0.001,0.0001,ovr,sigmoid,"{'C': 0.001, 'coef0': 0.0001, 'decision_function_shape': 'ovr', 'kernel': 'sigmoid'}",0.058823529411764705,0.06009834274266982,0.06082680750318703,0.0582771808413768,0.06082680750318703,0.05977053360043708,0.0010455436237047752,31,2021-05-04 10:43:51.076062
11,1348.5889810562135,11.34230597066974,145.1879304409027,1.2850057975541616,0.001,0.0001,ovo,sigmoid,"{'C': 0.001, 'coef0': 0.0001, 'decision_function_shape': 'ovo', 'kernel': 'sigmoid'}",0.058823529411764705,0.06009834274266982,0.06082680750318703,0.0582771808413768,0.06082680750318703,0.05977053360043708,0.0010455436237047752,31,2021-05-04 10:43:51.076062
12,1340.8030291080474,11.493033563228181,142.63059964179993,2.3716853859784495,0.001,0.001,ovr,sigmoid,"{'C': 0.001, 'coef0': 0.001, 'decision_function_shape': 'ovr', 'kernel': 'sigmoid'}",0.058823529411764705,0.06009834274266982,0.06082680750318703,0.0582771808413768,0.06082680750318703,0.05977053360043708,0.0010455436237047752,31,2021-05-04 10:43:51.076062
13,1350.9405536651611,9.899973441778446,144.45849270820617,2.071160160561113,0.001,0.001,ovo,sigmoid,"{'C': 0.001, 'coef0': 0.001, 'decision_function_shape': 'ovo', 'kernel': 'sigmoid'}",0.058823529411764705,0.06009834274266982,0.06082680750318703,0.0582771808413768,0.06082680750318703,0.05977053360043708,0.0010455436237047752,31,2021-05-04 10:43:51.076062
14,1349.0236469268798,5.929048246025254,142.0829800605774,2.577235259651811,0.001,0.01,ovr,sigmoid,"{'C': 0.001, 'coef0': 0.01, 'decision_function_shape': 'ovr', 'kernel': 'sigmoid'}",0.058823529411764705,0.06009834274266982,0.06064469131305773,0.0582771808413768,0.06082680750318703,0.05973411036241122,0.0010107038372253942,35,2021-05-04 10:43:51.076062
15,1343.3418362140656,6.249352177563615,145.15084414482118,1.7906978211656883,0.001,0.01,ovo,sigmoid,"{'C': 0.001, 'coef0': 0.01, 'decision_function_shape': 'ovo', 'kernel': 'sigmoid'}",0.058823529411764705,0.06009834274266982,0.06064469131305773,0.0582771808413768,0.06082680750318703,0.05973411036241122,0.0010107038372253942,35,2021-05-04 10:43:51.076062
16,1346.2136732578278,9.125017910031554,143.15659189224243,4.322838611575081,0.001,0.1,ovr,sigmoid,"{'C': 0.001, 'coef0': 0.1, 'decision_function_shape': 'ovr', 'kernel': 'sigmoid'}",0.0582771808413768,0.05936987798215261,0.06028045893279913,0.05682025132034238,0.059551994172281915,0.05885995264979057,0.0012047230310356025,37,2021-05-04 10:43:51.076062
17,1347.113956451416,9.319611029757224,145.05314073562622,2.48356931368163,0.001,0.1,ovo,sigmoid,"{'C': 0.001, 'coef0': 0.1, 'decision_function_shape': 'ovo', 'kernel': 'sigmoid'}",0.0582771808413768,0.05936987798215261,0.06028045893279913,0.05682025132034238,0.059551994172281915,0.05885995264979057,0.0012047230310356025,37,2021-05-04 10:43:51.076062
18,1362.7871634483338,3.8327322354712914,142.3936737537384,1.9811293308994051,0.001,1,ovr,sigmoid,"{'C': 0.001, 'coef0': 1, 'decision_function_shape': 'ovr', 'kernel': 'sigmoid'}",0.04698597705336005,0.04716809324348935,0.04716809324348935,0.04716809324348935,0.04716809324348935,0.04713167000546349,7.284647605171889e-05,39,2021-05-04 10:43:51.076062
19,1359.931180524826,6.788065718695434,144.35536003112793,1.4687434594338293,0.001,1,ovo,sigmoid,"{'C': 0.001, 'coef0': 1, 'decision_function_shape': 'ovo', 'kernel': 'sigmoid'}",0.04698597705336005,0.04716809324348935,0.04716809324348935,0.04716809324348935,0.04716809324348935,0.04713167000546349,7.284647605171889e-05,39,2021-05-04 10:43:51.076062
20,1132.2676493644715,7.116819863624744,144.52911033630372,1.5475106780163457,0.01,0.0001,ovr,sigmoid,"{'C': 0.01, 'coef0': 0.0001, 'decision_function_shape': 'ovr', 'kernel': 'sigmoid'}",0.39009287925696595,0.38790748497541433,0.3886359497359315,0.39610271353123294,0.39610271353123294,0.3917683482061555,0.0036082911968109326,15,2021-05-04 10:43:51.076062
21,1132.7567262649536,9.16838014387724,142.05845336914064,2.217234010483896,0.01,0.0001,ovo,sigmoid,"{'C': 0.01, 'coef0': 0.0001, 'decision_function_shape': 'ovo', 'kernel': 'sigmoid'}",0.39009287925696595,0.38790748497541433,0.3886359497359315,0.39610271353123294,0.39610271353123294,0.3917683482061555,0.0036082911968109326,15,2021-05-04 10:43:51.076062
22,1133.2635441303253,6.805293398518751,141.638117313385,1.7343787105251613,0.01,0.001,ovr,sigmoid,"{'C': 0.01, 'coef0': 0.001, 'decision_function_shape': 'ovr', 'kernel': 'sigmoid'}",0.38972864687670733,0.3882717173556729,0.3884538335458022,0.39610271353123294,0.3957384811509743,0.391659078492078,0.0035174364321276,17,2021-05-04 10:43:51.076062
23,1134.0104322433472,6.047643078344851,143.95005626678466,3.6630788722365892,0.01,0.001,ovo,sigmoid,"{'C': 0.01, 'coef0': 0.001, 'decision_function_shape': 'ovo', 'kernel': 'sigmoid'}",0.38972864687670733,0.3882717173556729,0.3884538335458022,0.39610271353123294,0.3957384811509743,0.391659078492078,0.0035174364321276,17,2021-05-04 10:43:51.076062
24,1132.0204266548158,9.726840046189281,142.48580832481383,2.914604246835574,0.01,0.01,ovr,sigmoid,"{'C': 0.01, 'coef0': 0.01, 'decision_function_shape': 'ovr', 'kernel': 'sigmoid'}",0.389546530686578,0.3873611364050264,0.3871790202148971,0.3946457840101985,0.3944636678200692,0.39063922782735383,0.0033042923853700227,19,2021-05-04 10:43:51.076062
25,1136.8519925117494,7.836144590395621,142.38547534942626,1.3887432072930292,0.01,0.01,ovo,sigmoid,"{'C': 0.01, 'coef0': 0.01, 'decision_function_shape': 'ovo', 'kernel': 'sigmoid'}",0.389546530686578,0.3873611364050264,0.3871790202148971,0.3946457840101985,0.3944636678200692,0.39063922782735383,0.0033042923853700227,19,2021-05-04 10:43:51.076062
26,1139.9785310268403,4.94451175683546,141.94733119010925,2.4187381365317426,0.01,0.1,ovr,sigmoid,"{'C': 0.01, 'coef0': 0.1, 'decision_function_shape': 'ovr', 'kernel': 'sigmoid'}",0.3802586049899836,0.37606993261700966,0.378073210708432,0.3864505554543799,0.38481150974321615,0.3811327627026042,0.003938765241210191,21,2021-05-04 10:43:51.076062
27,1145.1177004814149,3.143215215604965,143.95225467681885,0.8704090745410931,0.01,0.1,ovo,sigmoid,"{'C': 0.01, 'coef0': 0.1, 'decision_function_shape': 'ovo', 'kernel': 'sigmoid'}",0.3802586049899836,0.37606993261700966,0.378073210708432,0.3864505554543799,0.38481150974321615,0.3811327627026042,0.003938765241210191,21,2021-05-04 10:43:51.076062
28,1314.1173230648042,9.143121319221672,144.68905954360963,4.322689185849744,0.01,1,ovr,sigmoid,"{'C': 0.01, 'coef0': 1, 'decision_function_shape': 'ovr', 'kernel': 'sigmoid'}",0.1957749043890002,0.20123839009287925,0.19431797486796576,0.19796029867055182,0.19450009105809507,0.1967583318156984,0.0025898945670560776,27,2021-05-04 10:43:51.076062
29,1306.668086528778,10.276963676088764,141.93693151474,4.69969791136627,0.01,1,ovo,sigmoid,"{'C': 0.01, 'coef0': 1, 'decision_function_shape': 'ovo', 'kernel': 'sigmoid'}",0.1957749043890002,0.20123839009287925,0.19431797486796576,0.19796029867055182,0.19450009105809507,0.1967583318156984,0.0025898945670560776,27,2021-05-04 10:43:51.076062
30,535.7989190101623,6.664102146391244,131.40074815750123,2.793574279974133,0.1,0.0001,ovr,sigmoid,"{'C': 0.1, 'coef0': 0.0001, 'decision_function_shape': 'ovr', 'kernel': 'sigmoid'}",0.49080313239847023,0.4891640866873065,0.4966308504826079,0.4935348752504098,0.5108359133126935,0.4961937716262976,0.007747625993230514,3,2021-05-04 10:43:51.076062
31,535.2332688331604,6.944288186746401,129.71767511367798,1.3497743361514662,0.1,0.0001,ovo,sigmoid,"{'C': 0.1, 'coef0': 0.0001, 'decision_function_shape': 'ovo', 'kernel': 'sigmoid'}",0.49080313239847023,0.4891640866873065,0.4966308504826079,0.4935348752504098,0.5108359133126935,0.4961937716262976,0.007747625993230514,3,2021-05-04 10:43:51.076062
32,536.3354849338532,5.717020314027769,130.52866005897522,1.8114045592195942,0.1,0.001,ovr,sigmoid,"{'C': 0.1, 'coef0': 0.001, 'decision_function_shape': 'ovr', 'kernel': 'sigmoid'}",0.4906210162083409,0.4893462028774358,0.4966308504826079,0.49317064287015117,0.51174649426334,0.4963030413403751,0.00811298500176506,1,2021-05-04 10:43:51.076062
33,535.0393670082092,5.197650517900699,130.2548903942108,1.9831368189971508,0.1,0.001,ovo,sigmoid,"{'C': 0.1, 'coef0': 0.001, 'decision_function_shape': 'ovo', 'kernel': 'sigmoid'}",0.4906210162083409,0.4893462028774358,0.4966308504826079,0.49317064287015117,0.51174649426334,0.4963030413403751,0.00811298500176506,1,2021-05-04 10:43:51.076062
34,537.7205875873566,3.743821779380309,130.68983321189882,4.764929340575572,0.1,0.01,ovr,sigmoid,"{'C': 0.1, 'coef0': 0.01, 'decision_function_shape': 'ovr', 'kernel': 'sigmoid'}",0.4891640866873065,0.4873429247860135,0.494263340010927,0.49298852668002185,0.5135676561646331,0.49546530686578033,0.009390981641274032,5,2021-05-04 10:43:51.076062
35,533.7928766727448,4.9596033604751355,130.23689970970153,3.7238197356530454,0.1,0.01,ovo,sigmoid,"{'C': 0.1, 'coef0': 0.01, 'decision_function_shape': 'ovo', 'kernel': 'sigmoid'}",0.4891640866873065,0.4873429247860135,0.494263340010927,0.49298852668002185,0.5135676561646331,0.49546530686578033,0.009390981641274032,5,2021-05-04 10:43:51.076062
36,554.1586123466492,8.757068025981297,132.15814771652222,3.676540571749172,0.1,0.1,ovr,sigmoid,"{'C': 0.1, 'coef0': 0.1, 'decision_function_shape': 'ovr', 'kernel': 'sigmoid'}",0.45456201056273904,0.44909852485885987,0.4511018029502823,0.4523766162811874,0.4824257876525223,0.45791294846111824,0.012384222306134503,7,2021-05-04 10:43:51.076062
37,556.549827003479,4.698794687802226,132.3391881942749,2.745171453638868,0.1,0.1,ovo,sigmoid,"{'C': 0.1, 'coef0': 0.1, 'decision_function_shape': 'ovo', 'kernel': 'sigmoid'}",0.45456201056273904,0.44909852485885987,0.4511018029502823,0.4523766162811874,0.4824257876525223,0.45791294846111824,0.012384222306134503,7,2021-05-04 10:43:51.076062
38,670.3052894115448,5.565723995850126,140.54000616073608,3.3313650877830367,0.1,1,ovr,sigmoid,"{'C': 0.1, 'coef0': 1, 'decision_function_shape': 'ovr', 'kernel': 'sigmoid'}",0.23438353669641232,0.24512839191404115,0.2533236204698598,0.2487707157166272,0.25678382808231653,0.24767801857585142,0.007735973359732688,25,2021-05-04 10:43:51.076062
39,676.5702154159546,5.201201870929207,141.8285936355591,1.7985678210182652,0.1,1,ovo,sigmoid,"{'C': 0.1, 'coef0': 1, 'decision_function_shape': 'ovo', 'kernel': 'sigmoid'}",0.23438353669641232,0.24512839191404115,0.2533236204698598,0.2487707157166272,0.25678382808231653,0.24767801857585142,0.007735973359732688,25,2021-05-04 10:43:51.076062
40,297.36583857536317,3.688129014963082,113.29722986221313,4.070938096646744,1,0.0001,ovr,sigmoid,"{'C': 1, 'coef0': 0.0001, 'decision_function_shape': 'ovr', 'kernel': 'sigmoid'}",0.41030777636131854,0.4026588963758878,0.4022946639956292,0.4170460753961027,0.4013840830449827,0.4067382990347842,0.006067066328624782,9,2021-05-04 10:43:51.076062
41,299.9080547809601,1.2117439965541668,113.27053356170654,1.4845360385682396,1,0.0001,ovo,sigmoid,"{'C': 1, 'coef0': 0.0001, 'decision_function_shape': 'ovo', 'kernel': 'sigmoid'}",0.41030777636131854,0.4026588963758878,0.4022946639956292,0.4170460753961027,0.4013840830449827,0.4067382990347842,0.006067066328624782,9,2021-05-04 10:43:51.076062
42,285.8986427783966,22.80113737585297,108.73696660995483,11.768900086957462,1,0.001,ovr,sigmoid,"{'C': 1, 'coef0': 0.001, 'decision_function_shape': 'ovr', 'kernel': 'sigmoid'}",0.41067200874157705,0.4012019668548534,0.4013840830449827,0.4150427973046804,0.40083773447459486,0.4058277180841377,0.0059064073722453325,11,2021-05-04 10:43:51.076062
43,298.19402227401736,21.849813241977802,108.02171854972839,12.652707593487872,1,0.001,ovo,sigmoid,"{'C': 1, 'coef0': 0.001, 'decision_function_shape': 'ovo', 'kernel': 'sigmoid'}",0.41067200874157705,0.4012019668548534,0.4013840830449827,0.4150427973046804,0.40083773447459486,0.4058277180841377,0.0059064073722453325,11,2021-05-04 10:43:51.076062
44,288.4351010322571,31.212567743288673,103.00878229141236,13.849492933559796,1,0.01,ovr,sigmoid,"{'C': 1, 'coef0': 0.01, 'decision_function_shape': 'ovr', 'kernel': 'sigmoid'}",0.40593698779821524,0.39883445638317244,0.3971954106720087,0.4135858677836459,0.4002913859042069,0.40316882170824986,0.005982066389201451,13,2021-05-04 10:43:51.076062
45,302.1538360595703,25.37485012388122,112.4193356513977,19.08231552316333,1,0.01,ovo,sigmoid,"{'C': 1, 'coef0': 0.01, 'decision_function_shape': 'ovo', 'kernel': 'sigmoid'}",0.40593698779821524,0.39883445638317244,0.3971954106720087,0.4135858677836459,0.4002913859042069,0.40316882170824986,0.005982066389201451,13,2021-05-04 10:43:51.076062
46,307.1354777812958,32.43555085171715,117.06617140769958,19.805177686150223,1,0.1,ovr,sigmoid,"{'C': 1, 'coef0': 0.1, 'decision_function_shape': 'ovr', 'kernel': 'sigmoid'}",0.34747769076670915,0.3731560735749408,0.3558550355126571,0.370242214532872,0.3609542888362775,0.3615370606446914,0.009392252973998027,23,2021-05-04 10:43:51.076062
47,323.1658598423004,42.81410932986591,117.5907217502594,20.162872642860194,1,0.1,ovo,sigmoid,"{'C': 1, 'coef0': 0.1, 'decision_function_shape': 'ovo', 'kernel': 'sigmoid'}",0.34747769076670915,0.3731560735749408,0.3558550355126571,0.370242214532872,0.3609542888362775,0.3615370606446914,0.009392252973998027,23,2021-05-04 10:43:51.076062
48,432.58072423934937,37.02926693529889,116.66062231063843,19.52205223115868,1,1,ovr,sigmoid,"{'C': 1, 'coef0': 1, 'decision_function_shape': 'ovr', 'kernel': 'sigmoid'}",0.1690038244399927,0.16936805682025133,0.1886723729739574,0.17683482061555272,0.1974139501001639,0.1802586049899836,0.011154315592144946,29,2021-05-04 10:43:51.076062
49,432.07188453674314,26.508396383943705,66.9361599445343,7.215275995834411,1,1,ovo,sigmoid,"{'C': 1, 'coef0': 1, 'decision_function_shape': 'ovo', 'kernel': 'sigmoid'}",0.1690038244399927,0.16936805682025133,0.1886723729739574,0.17683482061555272,0.1974139501001639,0.1802586049899836,0.011154315592144946,29,2021-05-04 10:43:51.076062
