,mean_fit_time,std_fit_time,mean_score_time,std_score_time,param_C,param_coef0,param_decision_function_shape,param_kernel,params,split0_test_score,split1_test_score,split2_test_score,split3_test_score,split4_test_score,mean_test_score,std_test_score,rank_test_score,Timestamp
0,1360.4047866344451,21.236669269443368,156.17921953201295,2.0118601528679996,0.0001,0.0001,ovr,rbf,"{'C': 0.0001, 'coef0': 0.0001, 'decision_function_shape': 'ovr', 'kernel': 'rbf'}",0.04698597705336005,0.04716809324348935,0.04716809324348935,0.04716809324348935,0.04716809324348935,0.04713167000546349,7.284647605171889e-05,31,2021-05-04 03:09:40.090096
1,1298.2492815494538,58.13983237404591,156.38874473571778,4.856177558004866,0.0001,0.0001,ovo,rbf,"{'C': 0.0001, 'coef0': 0.0001, 'decision_function_shape': 'ovo', 'kernel': 'rbf'}",0.04698597705336005,0.04716809324348935,0.04716809324348935,0.04716809324348935,0.04716809324348935,0.04713167000546349,7.284647605171889e-05,31,2021-05-04 03:09:40.090096
2,1344.2276628494262,12.105628230997171,158.93974199295045,6.7670996470219125,0.0001,0.001,ovr,rbf,"{'C': 0.0001, 'coef0': 0.001, 'decision_function_shape': 'ovr', 'kernel': 'rbf'}",0.04698597705336005,0.04716809324348935,0.04716809324348935,0.04716809324348935,0.04716809324348935,0.04713167000546349,7.284647605171889e-05,31,2021-05-04 03:09:40.090096
3,1349.0792590141295,4.722626105376918,154.41082439422607,1.749610365212633,0.0001,0.001,ovo,rbf,"{'C': 0.0001, 'coef0': 0.001, 'decision_function_shape': 'ovo', 'kernel': 'rbf'}",0.04698597705336005,0.04716809324348935,0.04716809324348935,0.04716809324348935,0.04716809324348935,0.04713167000546349,7.284647605171889e-05,31,2021-05-04 03:09:40.090096
4,1345.9737298965454,13.133881369803923,158.15382809638976,4.7696420700241875,0.0001,0.01,ovr,rbf,"{'C': 0.0001, 'coef0': 0.01, 'decision_function_shape': 'ovr', 'kernel': 'rbf'}",0.04698597705336005,0.04716809324348935,0.04716809324348935,0.04716809324348935,0.04716809324348935,0.04713167000546349,7.284647605171889e-05,31,2021-05-04 03:09:40.090096
5,1347.4166954994203,5.2514058214651484,155.98025946617128,1.6648934882422701,0.0001,0.01,ovo,rbf,"{'C': 0.0001, 'coef0': 0.01, 'decision_function_shape': 'ovo', 'kernel': 'rbf'}",0.04698597705336005,0.04716809324348935,0.04716809324348935,0.04716809324348935,0.04716809324348935,0.04713167000546349,7.284647605171889e-05,31,2021-05-04 03:09:40.090096
6,1345.506208562851,5.4805207851612865,158.23866119384766,6.621354603003458,0.0001,0.1,ovr,rbf,"{'C': 0.0001, 'coef0': 0.1, 'decision_function_shape': 'ovr', 'kernel': 'rbf'}",0.04698597705336005,0.04716809324348935,0.04716809324348935,0.04716809324348935,0.04716809324348935,0.04713167000546349,7.284647605171889e-05,31,2021-05-04 03:09:40.090096
7,1345.7140205860137,4.3472408271126675,155.06580295562745,3.55654091543174,0.0001,0.1,ovo,rbf,"{'C': 0.0001, 'coef0': 0.1, 'decision_function_shape': 'ovo', 'kernel': 'rbf'}",0.04698597705336005,0.04716809324348935,0.04716809324348935,0.04716809324348935,0.04716809324348935,0.04713167000546349,7.284647605171889e-05,31,2021-05-04 03:09:40.090096
8,1345.702670478821,4.687488968545495,159.06564831733704,3.817181655066569,0.0001,1,ovr,rbf,"{'C': 0.0001, 'coef0': 1, 'decision_function_shape': 'ovr', 'kernel': 'rbf'}",0.04698597705336005,0.04716809324348935,0.04716809324348935,0.04716809324348935,0.04716809324348935,0.04713167000546349,7.284647605171889e-05,31,2021-05-04 03:09:40.090096
9,1347.7537371635437,4.953177052871101,155.3818790435791,2.410648975506889,0.0001,1,ovo,rbf,"{'C': 0.0001, 'coef0': 1, 'decision_function_shape': 'ovo', 'kernel': 'rbf'}",0.04698597705336005,0.04716809324348935,0.04716809324348935,0.04716809324348935,0.04716809324348935,0.04713167000546349,7.284647605171889e-05,31,2021-05-04 03:09:40.090096
10,1344.050932788849,7.524587113469576,157.8180841445923,5.4524811703272835,0.001,0.0001,ovr,rbf,"{'C': 0.001, 'coef0': 0.0001, 'decision_function_shape': 'ovr', 'kernel': 'rbf'}",0.04698597705336005,0.04716809324348935,0.04716809324348935,0.04716809324348935,0.04716809324348935,0.04713167000546349,7.284647605171889e-05,31,2021-05-04 03:09:40.090096
11,1349.0280358314515,6.109849974004892,156.0027449131012,2.963648203723215,0.001,0.0001,ovo,rbf,"{'C': 0.001, 'coef0': 0.0001, 'decision_function_shape': 'ovo', 'kernel': 'rbf'}",0.04698597705336005,0.04716809324348935,0.04716809324348935,0.04716809324348935,0.04716809324348935,0.04713167000546349,7.284647605171889e-05,31,2021-05-04 03:09:40.090096
12,1345.4653157234193,7.625622762488774,157.06416444778444,5.7913209160741905,0.001,0.001,ovr,rbf,"{'C': 0.001, 'coef0': 0.001, 'decision_function_shape': 'ovr', 'kernel': 'rbf'}",0.04698597705336005,0.04716809324348935,0.04716809324348935,0.04716809324348935,0.04716809324348935,0.04713167000546349,7.284647605171889e-05,31,2021-05-04 03:09:40.090096
13,1348.3392104625702,9.824720003023096,157.23790698051454,2.7658449614136873,0.001,0.001,ovo,rbf,"{'C': 0.001, 'coef0': 0.001, 'decision_function_shape': 'ovo', 'kernel': 'rbf'}",0.04698597705336005,0.04716809324348935,0.04716809324348935,0.04716809324348935,0.04716809324348935,0.04713167000546349,7.284647605171889e-05,31,2021-05-04 03:09:40.090096
14,1348.9990684986115,8.406449096788842,157.68177309036255,5.238765313509948,0.001,0.01,ovr,rbf,"{'C': 0.001, 'coef0': 0.01, 'decision_function_shape': 'ovr', 'kernel': 'rbf'}",0.04698597705336005,0.04716809324348935,0.04716809324348935,0.04716809324348935,0.04716809324348935,0.04713167000546349,7.284647605171889e-05,31,2021-05-04 03:09:40.090096
15,1343.4522739887238,2.367609662676478,155.43289580345154,2.4817790964343507,0.001,0.01,ovo,rbf,"{'C': 0.001, 'coef0': 0.01, 'decision_function_shape': 'ovo', 'kernel': 'rbf'}",0.04698597705336005,0.04716809324348935,0.04716809324348935,0.04716809324348935,0.04716809324348935,0.04713167000546349,7.284647605171889e-05,31,2021-05-04 03:09:40.090096
16,1347.1308034420013,14.94784775698486,156.86845059394835,4.2003668032907235,0.001,0.1,ovr,rbf,"{'C': 0.001, 'coef0': 0.1, 'decision_function_shape': 'ovr', 'kernel': 'rbf'}",0.04698597705336005,0.04716809324348935,0.04716809324348935,0.04716809324348935,0.04716809324348935,0.04713167000546349,7.284647605171889e-05,31,2021-05-04 03:09:40.090096
17,1347.4174883842468,9.846846085720728,154.45930404663085,1.5971774768134928,0.001,0.1,ovo,rbf,"{'C': 0.001, 'coef0': 0.1, 'decision_function_shape': 'ovo', 'kernel': 'rbf'}",0.04698597705336005,0.04716809324348935,0.04716809324348935,0.04716809324348935,0.04716809324348935,0.04713167000546349,7.284647605171889e-05,31,2021-05-04 03:09:40.090096
18,1347.970897769928,10.805484318299762,158.2543177127838,5.545775913570887,0.001,1,ovr,rbf,"{'C': 0.001, 'coef0': 1, 'decision_function_shape': 'ovr', 'kernel': 'rbf'}",0.04698597705336005,0.04716809324348935,0.04716809324348935,0.04716809324348935,0.04716809324348935,0.04713167000546349,7.284647605171889e-05,31,2021-05-04 03:09:40.090096
19,1346.292128610611,9.251177666706328,154.06060070991515,2.904056127293352,0.001,1,ovo,rbf,"{'C': 0.001, 'coef0': 1, 'decision_function_shape': 'ovo', 'kernel': 'rbf'}",0.04698597705336005,0.04716809324348935,0.04716809324348935,0.04716809324348935,0.04716809324348935,0.04713167000546349,7.284647605171889e-05,31,2021-05-04 03:09:40.090096
20,1270.4471716403962,8.633240546560723,158.4772608280182,5.297361310335363,0.01,0.0001,ovr,rbf,"{'C': 0.01, 'coef0': 0.0001, 'decision_function_shape': 'ovr', 'kernel': 'rbf'}",0.33655071935895103,0.3400109269714078,0.34729557457657984,0.34073939173192497,0.3502094336186487,0.3429612092515025,0.0050211253426452485,21,2021-05-04 03:09:40.090096
21,1270.4489530563355,4.243666788960339,153.6088011264801,3.317775950517844,0.01,0.0001,ovo,rbf,"{'C': 0.01, 'coef0': 0.0001, 'decision_function_shape': 'ovo', 'kernel': 'rbf'}",0.33655071935895103,0.3400109269714078,0.34729557457657984,0.34073939173192497,0.3502094336186487,0.3429612092515025,0.0050211253426452485,21,2021-05-04 03:09:40.090096
22,1266.2202310562134,8.848831015009777,158.63866658210753,5.1659186822151995,0.01,0.001,ovr,rbf,"{'C': 0.01, 'coef0': 0.001, 'decision_function_shape': 'ovr', 'kernel': 'rbf'}",0.33655071935895103,0.3400109269714078,0.34729557457657984,0.34073939173192497,0.3502094336186487,0.3429612092515025,0.0050211253426452485,21,2021-05-04 03:09:40.090096
23,1274.8281375408174,3.3878530532733264,156.11005373001097,2.126159396701201,0.01,0.001,ovo,rbf,"{'C': 0.01, 'coef0': 0.001, 'decision_function_shape': 'ovo', 'kernel': 'rbf'}",0.33655071935895103,0.3400109269714078,0.34729557457657984,0.34073939173192497,0.3502094336186487,0.3429612092515025,0.0050211253426452485,21,2021-05-04 03:09:40.090096
24,1265.0762521266938,8.869517414660136,158.7368227481842,7.466877817254198,0.01,0.01,ovr,rbf,"{'C': 0.01, 'coef0': 0.01, 'decision_function_shape': 'ovr', 'kernel': 'rbf'}",0.33655071935895103,0.3400109269714078,0.34729557457657984,0.34073939173192497,0.3502094336186487,0.3429612092515025,0.0050211253426452485,21,2021-05-04 03:09:40.090096
25,1272.6038221359254,7.273760724399194,156.3992708683014,0.9811669623856124,0.01,0.01,ovo,rbf,"{'C': 0.01, 'coef0': 0.01, 'decision_function_shape': 'ovo', 'kernel': 'rbf'}",0.33655071935895103,0.3400109269714078,0.34729557457657984,0.34073939173192497,0.3502094336186487,0.3429612092515025,0.0050211253426452485,21,2021-05-04 03:09:40.090096
26,1266.1344610691071,8.753822616350474,159.41140666007996,4.196318481396306,0.01,0.1,ovr,rbf,"{'C': 0.01, 'coef0': 0.1, 'decision_function_shape': 'ovr', 'kernel': 'rbf'}",0.33655071935895103,0.3400109269714078,0.34729557457657984,0.34073939173192497,0.3502094336186487,0.3429612092515025,0.0050211253426452485,21,2021-05-04 03:09:40.090096
27,1273.8505702972411,8.405070188704967,156.3561334133148,2.484130295660811,0.01,0.1,ovo,rbf,"{'C': 0.01, 'coef0': 0.1, 'decision_function_shape': 'ovo', 'kernel': 'rbf'}",0.33655071935895103,0.3400109269714078,0.34729557457657984,0.34073939173192497,0.3502094336186487,0.3429612092515025,0.0050211253426452485,21,2021-05-04 03:09:40.090096
28,1267.4533933639527,6.360403427404989,159.43443417549133,4.307415988393154,0.01,1,ovr,rbf,"{'C': 0.01, 'coef0': 1, 'decision_function_shape': 'ovr', 'kernel': 'rbf'}",0.33655071935895103,0.3400109269714078,0.34729557457657984,0.34073939173192497,0.3502094336186487,0.3429612092515025,0.0050211253426452485,21,2021-05-04 03:09:40.090096
29,1271.0438134670258,7.23448670443297,156.0798867702484,3.7758810551178836,0.01,1,ovo,rbf,"{'C': 0.01, 'coef0': 1, 'decision_function_shape': 'ovo', 'kernel': 'rbf'}",0.33655071935895103,0.3400109269714078,0.34729557457657984,0.34073939173192497,0.3502094336186487,0.3429612092515025,0.0050211253426452485,21,2021-05-04 03:09:40.090096
30,560.3647208690643,6.771068440185148,135.8555142879486,4.147301074907043,0.1,0.0001,ovr,rbf,"{'C': 0.1, 'coef0': 0.0001, 'decision_function_shape': 'ovr', 'kernel': 'rbf'}",0.8991076306683664,0.9102167182662538,0.9209615734838827,0.9111272992169004,0.9136769258787106,0.9110180295028227,0.007049190546510562,11,2021-05-04 03:09:40.090096
31,565.9022451400757,3.06024445302863,134.35994391441346,0.9825026568201243,0.1,0.0001,ovo,rbf,"{'C': 0.1, 'coef0': 0.0001, 'decision_function_shape': 'ovo', 'kernel': 'rbf'}",0.8991076306683664,0.9102167182662538,0.9209615734838827,0.9111272992169004,0.9136769258787106,0.9110180295028227,0.007049190546510562,11,2021-05-04 03:09:40.090096
32,561.8915051460266,10.240470367069472,137.9654058456421,4.135593155743398,0.1,0.001,ovr,rbf,"{'C': 0.1, 'coef0': 0.001, 'decision_function_shape': 'ovr', 'kernel': 'rbf'}",0.8991076306683664,0.9102167182662538,0.9209615734838827,0.9111272992169004,0.9136769258787106,0.9110180295028227,0.007049190546510562,11,2021-05-04 03:09:40.090096
33,562.5383581638337,5.0533630740447135,133.11713094711303,2.163123909910939,0.1,0.001,ovo,rbf,"{'C': 0.1, 'coef0': 0.001, 'decision_function_shape': 'ovo', 'kernel': 'rbf'}",0.8991076306683664,0.9102167182662538,0.9209615734838827,0.9111272992169004,0.9136769258787106,0.9110180295028227,0.007049190546510562,11,2021-05-04 03:09:40.090096
34,559.842035150528,7.657037620900162,138.34712862968445,4.554724614395162,0.1,0.01,ovr,rbf,"{'C': 0.1, 'coef0': 0.01, 'decision_function_shape': 'ovr', 'kernel': 'rbf'}",0.8991076306683664,0.9102167182662538,0.9209615734838827,0.9111272992169004,0.9136769258787106,0.9110180295028227,0.007049190546510562,11,2021-05-04 03:09:40.090096
35,566.0879751205445,3.6199131691692283,133.27497148513794,3.066729828366687,0.1,0.01,ovo,rbf,"{'C': 0.1, 'coef0': 0.01, 'decision_function_shape': 'ovo', 'kernel': 'rbf'}",0.8991076306683664,0.9102167182662538,0.9209615734838827,0.9111272992169004,0.9136769258787106,0.9110180295028227,0.007049190546510562,11,2021-05-04 03:09:40.090096
36,558.256834936142,9.905717757822112,138.5776898384094,4.137825515261112,0.1,0.1,ovr,rbf,"{'C': 0.1, 'coef0': 0.1, 'decision_function_shape': 'ovr', 'kernel': 'rbf'}",0.8991076306683664,0.9102167182662538,0.9209615734838827,0.9111272992169004,0.9136769258787106,0.9110180295028227,0.007049190546510562,11,2021-05-04 03:09:40.090096
37,564.4339710712433,4.872721035946209,133.9138192176819,2.114688542635013,0.1,0.1,ovo,rbf,"{'C': 0.1, 'coef0': 0.1, 'decision_function_shape': 'ovo', 'kernel': 'rbf'}",0.8991076306683664,0.9102167182662538,0.9209615734838827,0.9111272992169004,0.9136769258787106,0.9110180295028227,0.007049190546510562,11,2021-05-04 03:09:40.090096
38,560.9466116905212,8.536042912090444,137.42528223991394,4.951040305287696,0.1,1,ovr,rbf,"{'C': 0.1, 'coef0': 1, 'decision_function_shape': 'ovr', 'kernel': 'rbf'}",0.8991076306683664,0.9102167182662538,0.9209615734838827,0.9111272992169004,0.9136769258787106,0.9110180295028227,0.007049190546510562,11,2021-05-04 03:09:40.090096
39,563.4869485855103,3.561497221396835,133.70240507125854,2.2311469475062435,0.1,1,ovo,rbf,"{'C': 0.1, 'coef0': 1, 'decision_function_shape': 'ovo', 'kernel': 'rbf'}",0.8991076306683664,0.9102167182662538,0.9209615734838827,0.9111272992169004,0.9136769258787106,0.9110180295028227,0.007049190546510562,11,2021-05-04 03:09:40.090096
40,177.9491050720215,5.641918781227115,64.94235110282898,2.726863849810419,1,0.0001,ovr,rbf,"{'C': 1, 'coef0': 0.0001, 'decision_function_shape': 'ovr', 'kernel': 'rbf'}",1.0,1.0,0.9998178838098707,0.9996357676197414,0.9994536514296121,0.9997814605718449,0.00021238214878330276,1,2021-05-04 03:09:40.090096
41,186.10623812675476,2.9388634988682,63.84585814476013,2.2537437457852874,1,0.0001,ovo,rbf,"{'C': 1, 'coef0': 0.0001, 'decision_function_shape': 'ovo', 'kernel': 'rbf'}",1.0,1.0,0.9998178838098707,0.9996357676197414,0.9994536514296121,0.9997814605718449,0.00021238214878330276,1,2021-05-04 03:09:40.090096
42,184.0120141506195,3.280116402423382,65.24743313789368,1.3942540427862247,1,0.001,ovr,rbf,"{'C': 1, 'coef0': 0.001, 'decision_function_shape': 'ovr', 'kernel': 'rbf'}",1.0,1.0,0.9998178838098707,0.9996357676197414,0.9994536514296121,0.9997814605718449,0.00021238214878330276,1,2021-05-04 03:09:40.090096
43,184.41648669242858,2.269628999280632,63.073979425430295,2.4929134960293404,1,0.001,ovo,rbf,"{'C': 1, 'coef0': 0.001, 'decision_function_shape': 'ovo', 'kernel': 'rbf'}",1.0,1.0,0.9998178838098707,0.9996357676197414,0.9994536514296121,0.9997814605718449,0.00021238214878330276,1,2021-05-04 03:09:40.090096
44,182.88283596038818,4.062712442130252,64.18333249092102,2.5040988124965446,1,0.01,ovr,rbf,"{'C': 1, 'coef0': 0.01, 'decision_function_shape': 'ovr', 'kernel': 'rbf'}",1.0,1.0,0.9998178838098707,0.9996357676197414,0.9994536514296121,0.9997814605718449,0.00021238214878330276,1,2021-05-04 03:09:40.090096
45,184.9187840938568,2.831195052760045,64.41537270545959,1.8300342941401935,1,0.01,ovo,rbf,"{'C': 1, 'coef0': 0.01, 'decision_function_shape': 'ovo', 'kernel': 'rbf'}",1.0,1.0,0.9998178838098707,0.9996357676197414,0.9994536514296121,0.9997814605718449,0.00021238214878330276,1,2021-05-04 03:09:40.090096
46,183.46020131111146,2.2968751028230856,65.51405725479125,1.4367457832843429,1,0.1,ovr,rbf,"{'C': 1, 'coef0': 0.1, 'decision_function_shape': 'ovr', 'kernel': 'rbf'}",1.0,1.0,0.9998178838098707,0.9996357676197414,0.9994536514296121,0.9997814605718449,0.00021238214878330276,1,2021-05-04 03:09:40.090096
47,183.79757990837098,3.8402407677006796,63.05423636436463,1.6768100415975014,1,0.1,ovo,rbf,"{'C': 1, 'coef0': 0.1, 'decision_function_shape': 'ovo', 'kernel': 'rbf'}",1.0,1.0,0.9998178838098707,0.9996357676197414,0.9994536514296121,0.9997814605718449,0.00021238214878330276,1,2021-05-04 03:09:40.090096
48,173.94138593673705,8.102708808775738,57.06800775527954,6.570682578592107,1,1,ovr,rbf,"{'C': 1, 'coef0': 1, 'decision_function_shape': 'ovr', 'kernel': 'rbf'}",1.0,1.0,0.9998178838098707,0.9996357676197414,0.9994536514296121,0.9997814605718449,0.00021238214878330276,1,2021-05-04 03:09:40.090096
49,159.5853865146637,4.507977450569993,42.712700033187865,5.052634611599876,1,1,ovo,rbf,"{'C': 1, 'coef0': 1, 'decision_function_shape': 'ovo', 'kernel': 'rbf'}",1.0,1.0,0.9998178838098707,0.9996357676197414,0.9994536514296121,0.9997814605718449,0.00021238214878330276,1,2021-05-04 03:09:40.090096
