,mean_fit_time,std_fit_time,mean_score_time,std_score_time,param_C,param_coef0,param_decision_function_shape,param_degree,param_kernel,params,split0_test_score,split1_test_score,split2_test_score,split3_test_score,split4_test_score,mean_test_score,std_test_score,rank_test_score,Timestamp
0,1358.700462961197,51.87367555797,142.01088919639588,15.760652734295906,0.0001,0.0001,ovr,2,poly,"{'C': 0.0001, 'coef0': 0.0001, 'decision_function_shape': 'ovr', 'degree': 2, 'kernel': 'poly'}",0.04698597705336005,0.04716809324348935,0.04716809324348935,0.04716809324348935,0.04716809324348935,0.04713167000546349,7.284647605171889e-05,141,2021-05-03 19:41:18.763714
1,1281.8672350406646,38.02825369553206,137.69404177665712,18.66629624499387,0.0001,0.0001,ovr,3,poly,"{'C': 0.0001, 'coef0': 0.0001, 'decision_function_shape': 'ovr', 'degree': 3, 'kernel': 'poly'}",0.047714441813877254,0.047714441813877254,0.04789655800400656,0.04753232562374795,0.04789655800400656,0.04775086505190311,0.00013628327760968772,135,2021-05-03 19:41:18.763714
2,1294.3822753429413,68.4298904319723,140.9404016494751,16.49831939530248,0.0001,0.0001,ovr,4,poly,"{'C': 0.0001, 'coef0': 0.0001, 'decision_function_shape': 'ovr', 'degree': 4, 'kernel': 'poly'}",0.050081952285558194,0.04953560371517028,0.04971771990529958,0.0509925332362047,0.04989983609542888,0.050045529047532324,0.000507317001536483,127,2021-05-03 19:41:18.763714
3,1342.5455544948577,43.246556629513655,138.49237594604492,16.756606794572047,0.0001,0.0001,ovo,2,poly,"{'C': 0.0001, 'coef0': 0.0001, 'decision_function_shape': 'ovo', 'degree': 2, 'kernel': 'poly'}",0.04698597705336005,0.04716809324348935,0.04716809324348935,0.04716809324348935,0.04716809324348935,0.04713167000546349,7.284647605171889e-05,141,2021-05-03 19:41:18.763714
4,1326.3562916278838,44.86784724951878,148.12469487190248,9.563901980575668,0.0001,0.0001,ovo,3,poly,"{'C': 0.0001, 'coef0': 0.0001, 'decision_function_shape': 'ovo', 'degree': 3, 'kernel': 'poly'}",0.047714441813877254,0.047714441813877254,0.04789655800400656,0.04753232562374795,0.04789655800400656,0.04775086505190311,0.00013628327760968772,135,2021-05-03 19:41:18.763714
5,1311.3609136104583,75.25629771177397,132.4520157814026,11.416839684304522,0.0001,0.0001,ovo,4,poly,"{'C': 0.0001, 'coef0': 0.0001, 'decision_function_shape': 'ovo', 'degree': 4, 'kernel': 'poly'}",0.050081952285558194,0.04953560371517028,0.04971771990529958,0.0509925332362047,0.04989983609542888,0.050045529047532324,0.000507317001536483,127,2021-05-03 19:41:18.763714
6,1313.4034074783326,65.84606843938656,138.40512290000916,8.880890289916014,0.0001,0.001,ovr,2,poly,"{'C': 0.0001, 'coef0': 0.001, 'decision_function_shape': 'ovr', 'degree': 2, 'kernel': 'poly'}",0.04698597705336005,0.04716809324348935,0.04716809324348935,0.04716809324348935,0.04716809324348935,0.04713167000546349,7.284647605171889e-05,141,2021-05-03 19:41:18.763714
7,1354.2158712387086,110.85851837990387,139.46230659484863,17.275377581890126,0.0001,0.001,ovr,3,poly,"{'C': 0.0001, 'coef0': 0.001, 'decision_function_shape': 'ovr', 'degree': 3, 'kernel': 'poly'}",0.047714441813877254,0.047714441813877254,0.04789655800400656,0.04753232562374795,0.04789655800400656,0.04775086505190311,0.00013628327760968772,135,2021-05-03 19:41:18.763714
8,1299.8778702259065,109.66939726027215,140.92551398277283,7.475781864153066,0.0001,0.001,ovr,4,poly,"{'C': 0.0001, 'coef0': 0.001, 'decision_function_shape': 'ovr', 'degree': 4, 'kernel': 'poly'}",0.050081952285558194,0.04953560371517028,0.04971771990529958,0.0509925332362047,0.04989983609542888,0.050045529047532324,0.000507317001536483,127,2021-05-03 19:41:18.763714
9,1309.7959332942962,54.898332289661276,142.8057173728943,21.115850138444365,0.0001,0.001,ovo,2,poly,"{'C': 0.0001, 'coef0': 0.001, 'decision_function_shape': 'ovo', 'degree': 2, 'kernel': 'poly'}",0.04698597705336005,0.04716809324348935,0.04716809324348935,0.04716809324348935,0.04716809324348935,0.04713167000546349,7.284647605171889e-05,141,2021-05-03 19:41:18.763714
10,1331.4872005939483,51.856221608744875,141.3833878993988,10.585840076172694,0.0001,0.001,ovo,3,poly,"{'C': 0.0001, 'coef0': 0.001, 'decision_function_shape': 'ovo', 'degree': 3, 'kernel': 'poly'}",0.047714441813877254,0.047714441813877254,0.04789655800400656,0.04753232562374795,0.04789655800400656,0.04775086505190311,0.00013628327760968772,135,2021-05-03 19:41:18.763714
11,1319.3765377998352,27.351930185862347,138.95156149864198,16.441338697837654,0.0001,0.001,ovo,4,poly,"{'C': 0.0001, 'coef0': 0.001, 'decision_function_shape': 'ovo', 'degree': 4, 'kernel': 'poly'}",0.050081952285558194,0.04953560371517028,0.04971771990529958,0.0509925332362047,0.04989983609542888,0.050045529047532324,0.000507317001536483,127,2021-05-03 19:41:18.763714
12,1337.2219457149506,41.81191625464747,147.78911957740783,12.564905703783742,0.0001,0.01,ovr,2,poly,"{'C': 0.0001, 'coef0': 0.01, 'decision_function_shape': 'ovr', 'degree': 2, 'kernel': 'poly'}",0.04698597705336005,0.04716809324348935,0.04716809324348935,0.04716809324348935,0.04716809324348935,0.04713167000546349,7.284647605171889e-05,141,2021-05-03 19:41:18.763714
13,1287.5267224311829,37.069969334484945,141.90151419639588,15.155398916451029,0.0001,0.01,ovr,3,poly,"{'C': 0.0001, 'coef0': 0.01, 'decision_function_shape': 'ovr', 'degree': 3, 'kernel': 'poly'}",0.047714441813877254,0.047714441813877254,0.04789655800400656,0.04753232562374795,0.04789655800400656,0.04775086505190311,0.00013628327760968772,135,2021-05-03 19:41:18.763714
14,1333.888880109787,36.463451148482484,144.1663070678711,12.93302327262354,0.0001,0.01,ovr,4,poly,"{'C': 0.0001, 'coef0': 0.01, 'decision_function_shape': 'ovr', 'degree': 4, 'kernel': 'poly'}",0.050081952285558194,0.04953560371517028,0.04971771990529958,0.0509925332362047,0.04989983609542888,0.050045529047532324,0.000507317001536483,127,2021-05-03 19:41:18.763714
15,1296.986669588089,31.853766367666683,134.54491295814515,16.281282692833358,0.0001,0.01,ovo,2,poly,"{'C': 0.0001, 'coef0': 0.01, 'decision_function_shape': 'ovo', 'degree': 2, 'kernel': 'poly'}",0.04698597705336005,0.04716809324348935,0.04716809324348935,0.04716809324348935,0.04716809324348935,0.04713167000546349,7.284647605171889e-05,141,2021-05-03 19:41:18.763714
16,1318.4854610919951,31.68644488702553,141.53638443946838,3.2299799894645984,0.0001,0.01,ovo,3,poly,"{'C': 0.0001, 'coef0': 0.01, 'decision_function_shape': 'ovo', 'degree': 3, 'kernel': 'poly'}",0.047714441813877254,0.047714441813877254,0.04789655800400656,0.04753232562374795,0.04789655800400656,0.04775086505190311,0.00013628327760968772,135,2021-05-03 19:41:18.763714
17,1331.3149472713471,28.123525914228875,143.9852870464325,2.9785349489291204,0.0001,0.01,ovo,4,poly,"{'C': 0.0001, 'coef0': 0.01, 'decision_function_shape': 'ovo', 'degree': 4, 'kernel': 'poly'}",0.050081952285558194,0.04953560371517028,0.04971771990529958,0.0509925332362047,0.04989983609542888,0.050045529047532324,0.000507317001536483,127,2021-05-03 19:41:18.763714
18,1380.4989715099334,10.421284975089,143.4780209541321,1.988362569670697,0.0001,0.1,ovr,2,poly,"{'C': 0.0001, 'coef0': 0.1, 'decision_function_shape': 'ovr', 'degree': 2, 'kernel': 'poly'}",0.04698597705336005,0.04716809324348935,0.04716809324348935,0.04716809324348935,0.04716809324348935,0.04713167000546349,7.284647605171889e-05,141,2021-05-03 19:41:18.763714
19,1376.2862231254578,10.82360039537863,143.56729612350463,3.7438833532988016,0.0001,0.1,ovr,3,poly,"{'C': 0.0001, 'coef0': 0.1, 'decision_function_shape': 'ovr', 'degree': 3, 'kernel': 'poly'}",0.047714441813877254,0.047714441813877254,0.04789655800400656,0.047714441813877254,0.04789655800400656,0.047787288289928974,8.921834794329633e-05,133,2021-05-03 19:41:18.763714
20,1376.9202723026276,4.899514650719785,145.67592463493347,1.9983781012482924,0.0001,0.1,ovr,4,poly,"{'C': 0.0001, 'coef0': 0.1, 'decision_function_shape': 'ovr', 'degree': 4, 'kernel': 'poly'}",0.05026406847568749,0.04971771990529958,0.05044618466581679,0.0513567656164633,0.05062830085594609,0.050482607903842645,0.0005328260367265633,125,2021-05-03 19:41:18.763714
21,1375.6852478504181,4.8775071867481605,143.2192671775818,1.7976000186237213,0.0001,0.1,ovo,2,poly,"{'C': 0.0001, 'coef0': 0.1, 'decision_function_shape': 'ovo', 'degree': 2, 'kernel': 'poly'}",0.04698597705336005,0.04716809324348935,0.04716809324348935,0.04716809324348935,0.04716809324348935,0.04713167000546349,7.284647605171889e-05,141,2021-05-03 19:41:18.763714
22,1371.106342601776,6.951020427978534,145.67477889060973,1.142972055023284,0.0001,0.1,ovo,3,poly,"{'C': 0.0001, 'coef0': 0.1, 'decision_function_shape': 'ovo', 'degree': 3, 'kernel': 'poly'}",0.047714441813877254,0.047714441813877254,0.04789655800400656,0.047714441813877254,0.04789655800400656,0.047787288289928974,8.921834794329633e-05,133,2021-05-03 19:41:18.763714
23,1377.83323302269,5.282677354785319,144.93376469612122,1.0253344895456766,0.0001,0.1,ovo,4,poly,"{'C': 0.0001, 'coef0': 0.1, 'decision_function_shape': 'ovo', 'degree': 4, 'kernel': 'poly'}",0.05026406847568749,0.04971771990529958,0.05044618466581679,0.0513567656164633,0.05062830085594609,0.050482607903842645,0.0005328260367265633,125,2021-05-03 19:41:18.763714
24,1378.2909304142,12.473722203803536,142.51315722465515,3.9404901754594803,0.0001,1,ovr,2,poly,"{'C': 0.0001, 'coef0': 1, 'decision_function_shape': 'ovr', 'degree': 2, 'kernel': 'poly'}",0.04698597705336005,0.04716809324348935,0.04716809324348935,0.04716809324348935,0.04716809324348935,0.04713167000546349,7.284647605171889e-05,141,2021-05-03 19:41:18.763714
25,1365.535582447052,4.92905092741098,143.7389935016632,2.0450441193726325,0.0001,1,ovr,3,poly,"{'C': 0.0001, 'coef0': 1, 'decision_function_shape': 'ovr', 'degree': 3, 'kernel': 'poly'}",0.051174649426334,0.051174649426334,0.05081041704607539,0.05172099799672191,0.05208523037698051,0.05139318885448916,0.00045200049703117515,123,2021-05-03 19:41:18.763714
26,1358.1943505764007,9.518323669278082,141.7185504436493,3.2824729078881454,0.0001,1,ovr,4,poly,"{'C': 0.0001, 'coef0': 1, 'decision_function_shape': 'ovr', 'degree': 4, 'kernel': 'poly'}",0.06956838462939355,0.06683664177745402,0.0661081770169368,0.06956838462939355,0.072846476051721,0.06898561282097979,0.002386764512898323,107,2021-05-03 19:41:18.763714
27,1359.5952078342439,9.591895927235145,140.01051030158996,2.1806012623974937,0.0001,1,ovo,2,poly,"{'C': 0.0001, 'coef0': 1, 'decision_function_shape': 'ovo', 'degree': 2, 'kernel': 'poly'}",0.04698597705336005,0.04716809324348935,0.04716809324348935,0.04716809324348935,0.04716809324348935,0.04713167000546349,7.284647605171889e-05,141,2021-05-03 19:41:18.763714
28,1342.1306694507598,7.750934508091866,139.30793251991273,3.7793588105119555,0.0001,1,ovo,3,poly,"{'C': 0.0001, 'coef0': 1, 'decision_function_shape': 'ovo', 'degree': 3, 'kernel': 'poly'}",0.051174649426334,0.051174649426334,0.05081041704607539,0.05172099799672191,0.05208523037698051,0.05139318885448916,0.00045200049703117515,123,2021-05-03 19:41:18.763714
29,1322.383246421814,9.024460657039866,141.0577465057373,1.9679173267926993,0.0001,1,ovo,4,poly,"{'C': 0.0001, 'coef0': 1, 'decision_function_shape': 'ovo', 'degree': 4, 'kernel': 'poly'}",0.06956838462939355,0.06683664177745402,0.0661081770169368,0.06956838462939355,0.072846476051721,0.06898561282097979,0.002386764512898323,107,2021-05-03 19:41:18.763714
30,1338.5400089263917,8.791706598326464,141.5851191520691,3.323635525643845,0.001,0.0001,ovr,2,poly,"{'C': 0.001, 'coef0': 0.0001, 'decision_function_shape': 'ovr', 'degree': 2, 'kernel': 'poly'}",0.05153888180659261,0.05263157894736842,0.05153888180659261,0.05281369513749772,0.052995811327627027,0.05230376980513568,0.0006350608550050145,119,2021-05-03 19:41:18.763714
31,1322.9659468650818,5.767480156879567,140.23235592842101,3.947579997246516,0.001,0.0001,ovr,3,poly,"{'C': 0.001, 'coef0': 0.0001, 'decision_function_shape': 'ovr', 'degree': 3, 'kernel': 'poly'}",0.06738299034784193,0.0648333636860317,0.06446913130577309,0.06738299034784193,0.06975050081952286,0.06676379530140228,0.00193283542690535,111,2021-05-03 19:41:18.763714
32,1316.8647827625275,5.8668999184565225,139.0496970653534,1.5324803681963302,0.001,0.0001,ovr,4,poly,"{'C': 0.001, 'coef0': 0.0001, 'decision_function_shape': 'ovr', 'degree': 4, 'kernel': 'poly'}",0.07393917319249681,0.07157166272081589,0.06975050081952286,0.07412128938262612,0.07885631032598799,0.07364778728828994,0.0030638850256511515,103,2021-05-03 19:41:18.763714
33,1341.3092429161072,3.9996771504150246,142.07185292243958,1.6273200580655824,0.001,0.0001,ovo,2,poly,"{'C': 0.001, 'coef0': 0.0001, 'decision_function_shape': 'ovo', 'degree': 2, 'kernel': 'poly'}",0.05153888180659261,0.05263157894736842,0.05153888180659261,0.05281369513749772,0.052995811327627027,0.05230376980513568,0.0006350608550050145,119,2021-05-03 19:41:18.763714
34,1326.0180120944976,9.59451170556404,140.097482919693,2.9346100440228264,0.001,0.0001,ovo,3,poly,"{'C': 0.001, 'coef0': 0.0001, 'decision_function_shape': 'ovo', 'degree': 3, 'kernel': 'poly'}",0.06738299034784193,0.0648333636860317,0.06446913130577309,0.06738299034784193,0.06975050081952286,0.06676379530140228,0.00193283542690535,111,2021-05-03 19:41:18.763714
35,1318.0411398887634,7.155172743453139,140.1955078125,3.237829718328749,0.001,0.0001,ovo,4,poly,"{'C': 0.001, 'coef0': 0.0001, 'decision_function_shape': 'ovo', 'degree': 4, 'kernel': 'poly'}",0.07393917319249681,0.07157166272081589,0.06975050081952286,0.07412128938262612,0.07885631032598799,0.07364778728828994,0.0030638850256511515,103,2021-05-03 19:41:18.763714
36,1345.0250890254974,9.340012824383294,141.6629490852356,2.2414330663557624,0.001,0.001,ovr,2,poly,"{'C': 0.001, 'coef0': 0.001, 'decision_function_shape': 'ovr', 'degree': 2, 'kernel': 'poly'}",0.05153888180659261,0.05263157894736842,0.05153888180659261,0.05281369513749772,0.052995811327627027,0.05230376980513568,0.0006350608550050145,119,2021-05-03 19:41:18.763714
37,1315.1388726234436,10.451024343276831,141.52315316200256,2.862134636681144,0.001,0.001,ovr,3,poly,"{'C': 0.001, 'coef0': 0.001, 'decision_function_shape': 'ovr', 'degree': 3, 'kernel': 'poly'}",0.06738299034784193,0.0648333636860317,0.06446913130577309,0.06738299034784193,0.06975050081952286,0.06676379530140228,0.00193283542690535,111,2021-05-03 19:41:18.763714
38,1321.2796989440917,6.559401483140232,139.30103559494017,1.630269522983054,0.001,0.001,ovr,4,poly,"{'C': 0.001, 'coef0': 0.001, 'decision_function_shape': 'ovr', 'degree': 4, 'kernel': 'poly'}",0.07393917319249681,0.07157166272081589,0.06975050081952286,0.07430340557275542,0.07885631032598799,0.0736842105263158,0.0030703731073695277,101,2021-05-03 19:41:18.763714
39,1337.7733218193055,9.47598213358805,142.163019323349,2.403685944093949,0.001,0.001,ovo,2,poly,"{'C': 0.001, 'coef0': 0.001, 'decision_function_shape': 'ovo', 'degree': 2, 'kernel': 'poly'}",0.05153888180659261,0.05263157894736842,0.05153888180659261,0.05281369513749772,0.052995811327627027,0.05230376980513568,0.0006350608550050145,119,2021-05-03 19:41:18.763714
40,1322.9588666915893,13.552078674795938,142.5199882507324,2.1113752169069344,0.001,0.001,ovo,3,poly,"{'C': 0.001, 'coef0': 0.001, 'decision_function_shape': 'ovo', 'degree': 3, 'kernel': 'poly'}",0.06738299034784193,0.0648333636860317,0.06446913130577309,0.06738299034784193,0.06975050081952286,0.06676379530140228,0.00193283542690535,111,2021-05-03 19:41:18.763714
41,1323.6442153930664,8.386520650685073,139.1471902370453,4.0874733570367905,0.001,0.001,ovo,4,poly,"{'C': 0.001, 'coef0': 0.001, 'decision_function_shape': 'ovo', 'degree': 4, 'kernel': 'poly'}",0.07393917319249681,0.07157166272081589,0.06975050081952286,0.07430340557275542,0.07885631032598799,0.0736842105263158,0.0030703731073695277,101,2021-05-03 19:41:18.763714
42,1339.0956186771393,9.579119803524799,140.64829216003417,2.871686705504781,0.001,0.01,ovr,2,poly,"{'C': 0.001, 'coef0': 0.01, 'decision_function_shape': 'ovr', 'degree': 2, 'kernel': 'poly'}",0.05208523037698051,0.05263157894736842,0.05172099799672191,0.05317792751775633,0.05281369513749772,0.05248588599526498,0.0005202278949949259,117,2021-05-03 19:41:18.763714
43,1321.7857542037964,10.100085623495836,141.20130090713502,3.688685979996259,0.001,0.01,ovr,3,poly,"{'C': 0.001, 'coef0': 0.01, 'decision_function_shape': 'ovr', 'degree': 3, 'kernel': 'poly'}",0.06756510653797122,0.0653797122564196,0.06446913130577309,0.06738299034784193,0.06975050081952286,0.06690948825350573,0.001845044639142442,109,2021-05-03 19:41:18.763714
44,1322.3261377334595,6.274425666789617,139.68817534446717,3.230933453479962,0.001,0.01,ovr,4,poly,"{'C': 0.001, 'coef0': 0.01, 'decision_function_shape': 'ovr', 'degree': 4, 'kernel': 'poly'}",0.07576033509378984,0.07230012748133309,0.06993261700965216,0.07503187033327263,0.07940265889637589,0.07448552176288473,0.003212686515563643,99,2021-05-03 19:41:18.763714
45,1336.3326246261597,9.156034094780878,140.85798001289368,1.433431625067375,0.001,0.01,ovo,2,poly,"{'C': 0.001, 'coef0': 0.01, 'decision_function_shape': 'ovo', 'degree': 2, 'kernel': 'poly'}",0.05208523037698051,0.05263157894736842,0.05172099799672191,0.05317792751775633,0.05281369513749772,0.05248588599526498,0.0005202278949949259,117,2021-05-03 19:41:18.763714
46,1321.4092648983,8.009222635125282,139.94917731285096,2.416566458487425,0.001,0.01,ovo,3,poly,"{'C': 0.001, 'coef0': 0.01, 'decision_function_shape': 'ovo', 'degree': 3, 'kernel': 'poly'}",0.06756510653797122,0.0653797122564196,0.06446913130577309,0.06738299034784193,0.06975050081952286,0.06690948825350573,0.001845044639142442,109,2021-05-03 19:41:18.763714
47,1318.9401392936707,6.578533868606656,140.97143754959106,2.7237575972168706,0.001,0.01,ovo,4,poly,"{'C': 0.001, 'coef0': 0.01, 'decision_function_shape': 'ovo', 'degree': 4, 'kernel': 'poly'}",0.07576033509378984,0.07230012748133309,0.06993261700965216,0.07503187033327263,0.07940265889637589,0.07448552176288473,0.003212686515563643,99,2021-05-03 19:41:18.763714
48,1338.325099182129,9.550065266625285,139.23270359039307,1.6182226211487143,0.001,0.1,ovr,2,poly,"{'C': 0.001, 'coef0': 0.1, 'decision_function_shape': 'ovr', 'degree': 2, 'kernel': 'poly'}",0.054816973228920055,0.05572755417956656,0.052995811327627027,0.05572755417956656,0.056638135130213076,0.05518120560917865,0.0012351720967265095,115,2021-05-03 19:41:18.763714
49,1321.544732952118,12.85189938448833,140.477219581604,2.333310304634269,0.001,0.1,ovr,3,poly,"{'C': 0.001, 'coef0': 0.1, 'decision_function_shape': 'ovr', 'degree': 3, 'kernel': 'poly'}",0.07011473319978145,0.06701875796758332,0.06665452558732471,0.06993261700965216,0.0726643598615917,0.06927699872518667,0.002217334730318621,105,2021-05-03 19:41:18.763714
50,1311.976722049713,3.623649838218555,139.16705150604247,1.0406802764377594,0.001,0.1,ovr,4,poly,"{'C': 0.001, 'coef0': 0.1, 'decision_function_shape': 'ovr', 'degree': 4, 'kernel': 'poly'}",0.08541249317064287,0.0803132398470224,0.0797668912766345,0.08231651793844473,0.08632307412128938,0.08282644327080677,0.0026401195082017986,97,2021-05-03 19:41:18.763714
51,1342.8997663497926,11.403635274610545,139.94304852485658,3.064343117232714,0.001,0.1,ovo,2,poly,"{'C': 0.001, 'coef0': 0.1, 'decision_function_shape': 'ovo', 'degree': 2, 'kernel': 'poly'}",0.054816973228920055,0.05572755417956656,0.052995811327627027,0.05572755417956656,0.056638135130213076,0.05518120560917865,0.0012351720967265095,115,2021-05-03 19:41:18.763714
52,1323.2906564235686,5.456786899913721,140.49960079193116,2.101917341590793,0.001,0.1,ovo,3,poly,"{'C': 0.001, 'coef0': 0.1, 'decision_function_shape': 'ovo', 'degree': 3, 'kernel': 'poly'}",0.07011473319978145,0.06701875796758332,0.06665452558732471,0.06993261700965216,0.0726643598615917,0.06927699872518667,0.002217334730318621,105,2021-05-03 19:41:18.763714
53,1308.769210767746,10.057089176274925,135.87105855941772,2.2732945226509518,0.001,0.1,ovo,4,poly,"{'C': 0.001, 'coef0': 0.1, 'decision_function_shape': 'ovo', 'degree': 4, 'kernel': 'poly'}",0.08541249317064287,0.0803132398470224,0.0797668912766345,0.08231651793844473,0.08632307412128938,0.08282644327080677,0.0026401195082017986,97,2021-05-03 19:41:18.763714
54,1309.0983933448792,8.92366427493995,139.96119933128358,1.6444271875991943,0.001,1,ovr,2,poly,"{'C': 0.001, 'coef0': 1, 'decision_function_shape': 'ovr', 'degree': 2, 'kernel': 'poly'}",0.12766344928064105,0.13294481879439082,0.12529593880896012,0.13258058641413223,0.13367328355490804,0.13043161537060646,0.0033310838434306867,95,2021-05-03 19:41:18.763714
55,1231.6712493896484,10.12624369089417,140.55996704101562,3.093616212603297,0.001,1,ovr,3,poly,"{'C': 0.001, 'coef0': 1, 'decision_function_shape': 'ovr', 'degree': 3, 'kernel': 'poly'}",0.26771079949007465,0.2629757785467128,0.2635221271171007,0.2706246585321435,0.2684392642505919,0.2666545255873247,0.002946457609347184,75,2021-05-03 19:41:18.763714
56,1114.183296585083,5.023490735108191,136.9713593482971,2.715863761136423,0.001,1,ovr,4,poly,"{'C': 0.001, 'coef0': 1, 'decision_function_shape': 'ovr', 'degree': 4, 'kernel': 'poly'}",0.4099435439810599,0.4155891458750683,0.42433072300127483,0.4197778182480423,0.42560553633217996,0.419049353487525,0.005767076587491496,67,2021-05-03 19:41:18.763714
57,1298.4422249794006,6.577618686554824,140.22261271476745,3.7905222678228787,0.001,1,ovo,2,poly,"{'C': 0.001, 'coef0': 1, 'decision_function_shape': 'ovo', 'degree': 2, 'kernel': 'poly'}",0.12766344928064105,0.13294481879439082,0.12529593880896012,0.13258058641413223,0.13367328355490804,0.13043161537060646,0.0033310838434306867,95,2021-05-03 19:41:18.763714
58,1227.5033287525177,9.851560459560769,139.10698957443236,2.751946282314027,0.001,1,ovo,3,poly,"{'C': 0.001, 'coef0': 1, 'decision_function_shape': 'ovo', 'degree': 3, 'kernel': 'poly'}",0.26771079949007465,0.2629757785467128,0.2635221271171007,0.2706246585321435,0.2684392642505919,0.2666545255873247,0.002946457609347184,75,2021-05-03 19:41:18.763714
59,1116.3537088871003,7.842975913432424,135.9151415348053,1.855037895793104,0.001,1,ovo,4,poly,"{'C': 0.001, 'coef0': 1, 'decision_function_shape': 'ovo', 'degree': 4, 'kernel': 'poly'}",0.4099435439810599,0.4155891458750683,0.42433072300127483,0.4197778182480423,0.42560553633217996,0.419049353487525,0.005767076587491496,67,2021-05-03 19:41:18.763714
60,1250.7258841991425,4.832734407713145,140.96957311630248,3.692872480222893,0.01,0.0001,ovr,2,poly,"{'C': 0.01, 'coef0': 0.0001, 'decision_function_shape': 'ovr', 'degree': 2, 'kernel': 'poly'}",0.1906756510653797,0.1853942815516299,0.19103988344563835,0.18757967583318158,0.19468220724822435,0.1898743398288108,0.0031765574373214633,93,2021-05-03 19:41:18.763714
61,1188.068128633499,10.219248744594806,135.68235626220704,1.6006090524349201,0.01,0.0001,ovr,3,poly,"{'C': 0.01, 'coef0': 0.0001, 'decision_function_shape': 'ovr', 'degree': 3, 'kernel': 'poly'}",0.2584228737934802,0.254052085230377,0.25077399380804954,0.25478054999089417,0.2613367328355491,0.25587324713167003,0.003656864075180807,81,2021-05-03 19:41:18.763714
62,1195.4755930900574,6.775987514588702,134.09073219299316,2.1163612604847897,0.01,0.0001,ovr,4,poly,"{'C': 0.01, 'coef0': 0.0001, 'decision_function_shape': 'ovr', 'degree': 4, 'kernel': 'poly'}",0.20815880531779277,0.2037880167546895,0.20779457293753414,0.20743034055727555,0.2179930795847751,0.20903296303041338,0.004746773864912014,87,2021-05-03 19:41:18.763714
63,1258.9934757232666,11.400952919360055,138.46952757835388,3.3475310872630457,0.01,0.0001,ovo,2,poly,"{'C': 0.01, 'coef0': 0.0001, 'decision_function_shape': 'ovo', 'degree': 2, 'kernel': 'poly'}",0.1906756510653797,0.1853942815516299,0.19103988344563835,0.18757967583318158,0.19468220724822435,0.1898743398288108,0.0031765574373214633,93,2021-05-03 19:41:18.763714
64,1177.7657270431519,4.807647971224958,136.09006843566894,2.5867565341404704,0.01,0.0001,ovo,3,poly,"{'C': 0.01, 'coef0': 0.0001, 'decision_function_shape': 'ovo', 'degree': 3, 'kernel': 'poly'}",0.2584228737934802,0.254052085230377,0.25077399380804954,0.25478054999089417,0.2613367328355491,0.25587324713167003,0.003656864075180807,81,2021-05-03 19:41:18.763714
65,1205.6016401767731,9.61730207979252,132.15551886558532,4.883742137903332,0.01,0.0001,ovo,4,poly,"{'C': 0.01, 'coef0': 0.0001, 'decision_function_shape': 'ovo', 'degree': 4, 'kernel': 'poly'}",0.20815880531779277,0.2037880167546895,0.20779457293753414,0.20743034055727555,0.2179930795847751,0.20903296303041338,0.004746773864912014,87,2021-05-03 19:41:18.763714
66,1256.8773365974425,5.491632117757225,138.05049505233765,2.710546322993368,0.01,0.001,ovr,2,poly,"{'C': 0.01, 'coef0': 0.001, 'decision_function_shape': 'ovr', 'degree': 2, 'kernel': 'poly'}",0.19085776725550901,0.18648697869240574,0.1917683482061555,0.1881260244035695,0.1952285558186123,0.19049353487525042,0.0030277330090140845,91,2021-05-03 19:41:18.763714
67,1186.4996072292329,9.358461395258407,138.0523747444153,4.83899557457586,0.01,0.001,ovr,3,poly,"{'C': 0.01, 'coef0': 0.001, 'decision_function_shape': 'ovr', 'degree': 3, 'kernel': 'poly'}",0.25878710617373885,0.254052085230377,0.25095610999817886,0.2549626661810235,0.2613367328355491,0.25601894008377346,0.0036485104988209513,79,2021-05-03 19:41:18.763714
68,1190.7858758449554,15.7764476002414,131.58078117370604,2.7120239870896676,0.01,0.001,ovr,4,poly,"{'C': 0.01, 'coef0': 0.001, 'decision_function_shape': 'ovr', 'degree': 4, 'kernel': 'poly'}",0.20815880531779277,0.204698597705336,0.20779457293753414,0.20779457293753414,0.218539428155163,0.209397195410672,0.004739781588976156,85,2021-05-03 19:41:18.763714
69,1262.8943397045136,9.166934721072609,138.92517523765565,2.142427482756701,0.01,0.001,ovo,2,poly,"{'C': 0.01, 'coef0': 0.001, 'decision_function_shape': 'ovo', 'degree': 2, 'kernel': 'poly'}",0.19085776725550901,0.18648697869240574,0.1917683482061555,0.1881260244035695,0.1952285558186123,0.19049353487525042,0.0030277330090140845,91,2021-05-03 19:41:18.763714
70,1186.6421155929565,10.454208254494876,134.4023024082184,3.6204764462783157,0.01,0.001,ovo,3,poly,"{'C': 0.01, 'coef0': 0.001, 'decision_function_shape': 'ovo', 'degree': 3, 'kernel': 'poly'}",0.25878710617373885,0.254052085230377,0.25095610999817886,0.2549626661810235,0.2613367328355491,0.25601894008377346,0.0036485104988209513,79,2021-05-03 19:41:18.763714
71,1197.8583555221558,7.497848752110752,135.09538812637328,2.207847283381377,0.01,0.001,ovo,4,poly,"{'C': 0.01, 'coef0': 0.001, 'decision_function_shape': 'ovo', 'degree': 4, 'kernel': 'poly'}",0.20815880531779277,0.204698597705336,0.20779457293753414,0.20779457293753414,0.218539428155163,0.209397195410672,0.004739781588976156,85,2021-05-03 19:41:18.763714
72,1251.2438127040864,4.652090001647054,138.24880409240723,3.9781150112696664,0.01,0.01,ovr,2,poly,"{'C': 0.01, 'coef0': 0.01, 'decision_function_shape': 'ovr', 'degree': 2, 'kernel': 'poly'}",0.20105627390274997,0.19541067200874157,0.19941722819158622,0.19887087962119832,0.2041522491349481,0.19978146057184484,0.002856380830697164,89,2021-05-03 19:41:18.763714
73,1185.7114608287811,6.693324645661477,135.27715072631835,2.9311504150262304,0.01,0.01,ovr,3,poly,"{'C': 0.01, 'coef0': 0.01, 'decision_function_shape': 'ovr', 'degree': 3, 'kernel': 'poly'}",0.2617009652158077,0.2553268985612821,0.2553268985612821,0.25769440903296303,0.26479694044800584,0.2589692223638681,0.0037304935724842498,77,2021-05-03 19:41:18.763714
74,1194.664462852478,6.770874964795487,134.5317971229553,1.826327457715276,0.01,0.01,ovr,4,poly,"{'C': 0.01, 'coef0': 0.01, 'decision_function_shape': 'ovr', 'degree': 4, 'kernel': 'poly'}",0.2134401748315425,0.20761245674740483,0.21307594245128392,0.21307594245128392,0.2260061919504644,0.2146421416863959,0.00608126291413305,83,2021-05-03 19:41:18.763714
75,1249.945358991623,8.52417672740777,139.1938063621521,3.002300956188326,0.01,0.01,ovo,2,poly,"{'C': 0.01, 'coef0': 0.01, 'decision_function_shape': 'ovo', 'degree': 2, 'kernel': 'poly'}",0.20105627390274997,0.19541067200874157,0.19941722819158622,0.19887087962119832,0.2041522491349481,0.19978146057184484,0.002856380830697164,89,2021-05-03 19:41:18.763714
76,1184.3988392829895,6.562183888766646,136.48486332893373,1.5224638189594033,0.01,0.01,ovo,3,poly,"{'C': 0.01, 'coef0': 0.01, 'decision_function_shape': 'ovo', 'degree': 3, 'kernel': 'poly'}",0.2617009652158077,0.2553268985612821,0.2553268985612821,0.25769440903296303,0.26479694044800584,0.2589692223638681,0.0037304935724842498,77,2021-05-03 19:41:18.763714
77,1195.9606737613678,9.865363675102197,135.03896765708924,2.704761816299104,0.01,0.01,ovo,4,poly,"{'C': 0.01, 'coef0': 0.01, 'decision_function_shape': 'ovo', 'degree': 4, 'kernel': 'poly'}",0.2134401748315425,0.20761245674740483,0.21307594245128392,0.21307594245128392,0.2260061919504644,0.2146421416863959,0.00608126291413305,83,2021-05-03 19:41:18.763714
78,1202.4289222717284,8.128676740566272,137.88623819351196,0.8970228200906464,0.01,0.1,ovr,2,poly,"{'C': 0.01, 'coef0': 0.1, 'decision_function_shape': 'ovr', 'degree': 2, 'kernel': 'poly'}",0.30395192132580584,0.30322345656528865,0.31050810417046076,0.31105445274084864,0.3141504279730468,0.3085776725550901,0.0042657194600495005,69,2021-05-03 19:41:18.763714
79,1162.2050772190094,12.886384382205893,135.4178635120392,2.318162155156389,0.01,0.1,ovr,3,poly,"{'C': 0.01, 'coef0': 0.1, 'decision_function_shape': 'ovr', 'degree': 3, 'kernel': 'poly'}",0.2983063194317975,0.29721362229102166,0.2964851575305045,0.2983063194317975,0.3059551994172282,0.29925332362046986,0.0034214586970147233,71,2021-05-03 19:41:18.763714
80,1150.3064536094666,10.438417329800282,131.7283326625824,2.5253778349111866,0.01,0.1,ovr,4,poly,"{'C': 0.01, 'coef0': 0.1, 'decision_function_shape': 'ovr', 'degree': 4, 'kernel': 'poly'}",0.2673465671098161,0.2631578947368421,0.27208158805317795,0.26771079949007465,0.27499544709524676,0.2690584592970315,0.004097573807444983,73,2021-05-03 19:41:18.763714
81,1204.247682094574,10.131799355019819,136.51514492034912,2.8522007042722173,0.01,0.1,ovo,2,poly,"{'C': 0.01, 'coef0': 0.1, 'decision_function_shape': 'ovo', 'degree': 2, 'kernel': 'poly'}",0.30395192132580584,0.30322345656528865,0.31050810417046076,0.31105445274084864,0.3141504279730468,0.3085776725550901,0.0042657194600495005,69,2021-05-03 19:41:18.763714
82,1156.7332931041717,7.330140183547715,135.2756682395935,2.394529882658092,0.01,0.1,ovo,3,poly,"{'C': 0.01, 'coef0': 0.1, 'decision_function_shape': 'ovo', 'degree': 3, 'kernel': 'poly'}",0.2983063194317975,0.29721362229102166,0.2964851575305045,0.2983063194317975,0.3059551994172282,0.29925332362046986,0.0034214586970147233,71,2021-05-03 19:41:18.763714
83,1151.3390254497529,4.617800948883229,132.85593104362488,1.4553379859970295,0.01,0.1,ovo,4,poly,"{'C': 0.01, 'coef0': 0.1, 'decision_function_shape': 'ovo', 'degree': 4, 'kernel': 'poly'}",0.2673465671098161,0.2631578947368421,0.27208158805317795,0.26771079949007465,0.27499544709524676,0.2690584592970315,0.004097573807444983,73,2021-05-03 19:41:18.763714
84,828.2868402481079,6.309387090238204,133.32779698371888,2.1310684951852146,0.01,1,ovr,2,poly,"{'C': 0.01, 'coef0': 1, 'decision_function_shape': 'ovr', 'degree': 2, 'kernel': 'poly'}",0.6740120196685485,0.6758331815698415,0.6927699872518667,0.6778364596612639,0.6873065015479877,0.6815516299399016,0.007243189256241809,57,2021-05-03 19:41:18.763714
85,640.5960605144501,4.385980722218696,117.54229321479798,1.2993006632072732,0.01,1,ovr,3,poly,"{'C': 0.01, 'coef0': 1, 'decision_function_shape': 'ovr', 'degree': 3, 'kernel': 'poly'}",0.8291750136587143,0.8293571298488437,0.8399198688763432,0.83026771079949,0.8410125660171189,0.8339464578401021,0.005347397777488614,43,2021-05-03 19:41:18.763714
86,501.00377864837645,3.052410604720361,99.6749439239502,1.406697120652726,0.01,1,ovr,4,poly,"{'C': 0.01, 'coef0': 1, 'decision_function_shape': 'ovr', 'degree': 4, 'kernel': 'poly'}",0.9147696230194864,0.9078492077945729,0.9247860134765981,0.9149517392096158,0.9218721544345292,0.9168457475869605,0.005952274815304852,31,2021-05-03 19:41:18.763714
87,831.0176672935486,6.675895061495886,131.26641821861267,2.985253114530464,0.01,1,ovo,2,poly,"{'C': 0.01, 'coef0': 1, 'decision_function_shape': 'ovo', 'degree': 2, 'kernel': 'poly'}",0.6740120196685485,0.6758331815698415,0.6927699872518667,0.6778364596612639,0.6873065015479877,0.6815516299399016,0.007243189256241809,57,2021-05-03 19:41:18.763714
88,642.4539994716645,3.4649132200349286,117.8584864616394,1.2521557248706936,0.01,1,ovo,3,poly,"{'C': 0.01, 'coef0': 1, 'decision_function_shape': 'ovo', 'degree': 3, 'kernel': 'poly'}",0.8291750136587143,0.8293571298488437,0.8399198688763432,0.83026771079949,0.8410125660171189,0.8339464578401021,0.005347397777488614,43,2021-05-03 19:41:18.763714
89,504.490540933609,6.1995355828072745,99.49145674705505,1.4642765431368436,0.01,1,ovo,4,poly,"{'C': 0.01, 'coef0': 1, 'decision_function_shape': 'ovo', 'degree': 4, 'kernel': 'poly'}",0.9147696230194864,0.9078492077945729,0.9247860134765981,0.9149517392096158,0.9218721544345292,0.9168457475869605,0.005952274815304852,31,2021-05-03 19:41:18.763714
90,800.9627365112304,6.064363424569537,115.46555256843567,3.068421179372609,0.1,0.0001,ovr,2,poly,"{'C': 0.1, 'coef0': 0.0001, 'decision_function_shape': 'ovr', 'degree': 2, 'kernel': 'poly'}",0.8131487889273357,0.8000364232380257,0.8220724822436715,0.8156984155891458,0.8160626479694045,0.8134037515935167,0.007297020997641959,47,2021-05-03 19:41:18.763714
91,803.8988644599915,10.513431440045993,110.75822138786316,1.8081605414422344,0.1,0.0001,ovr,3,poly,"{'C': 0.1, 'coef0': 0.0001, 'decision_function_shape': 'ovr', 'degree': 3, 'kernel': 'poly'}",0.679111272992169,0.6789291568020397,0.6976871243853578,0.694773265343289,0.6920415224913494,0.688508468402841,0.007950451180585492,55,2021-05-03 19:41:18.763714
92,911.4016236782074,9.740413899436765,112.42060799598694,2.198532580506652,0.1,0.0001,ovr,4,poly,"{'C': 0.1, 'coef0': 0.0001, 'decision_function_shape': 'ovr', 'degree': 4, 'kernel': 'poly'}",0.5026406847568748,0.48788927335640137,0.509925332362047,0.5086505190311419,0.5070114733199782,0.5032234565652887,0.008052254526549184,65,2021-05-03 19:41:18.763714
93,804.5261056423187,5.253290311661866,116.15207262039185,2.1315420198552357,0.1,0.0001,ovo,2,poly,"{'C': 0.1, 'coef0': 0.0001, 'decision_function_shape': 'ovo', 'degree': 2, 'kernel': 'poly'}",0.8131487889273357,0.8000364232380257,0.8220724822436715,0.8156984155891458,0.8160626479694045,0.8134037515935167,0.007297020997641959,47,2021-05-03 19:41:18.763714
94,801.6628541469574,2.318122918138842,110.43704476356507,2.7701973887397147,0.1,0.0001,ovo,3,poly,"{'C': 0.1, 'coef0': 0.0001, 'decision_function_shape': 'ovo', 'degree': 3, 'kernel': 'poly'}",0.679111272992169,0.6789291568020397,0.6976871243853578,0.694773265343289,0.6920415224913494,0.688508468402841,0.007950451180585492,55,2021-05-03 19:41:18.763714
95,919.1389595031739,6.686570538931578,115.40382657051086,1.6196329987892246,0.1,0.0001,ovo,4,poly,"{'C': 0.1, 'coef0': 0.0001, 'decision_function_shape': 'ovo', 'degree': 4, 'kernel': 'poly'}",0.5026406847568748,0.48788927335640137,0.509925332362047,0.5086505190311419,0.5070114733199782,0.5032234565652887,0.008052254526549184,65,2021-05-03 19:41:18.763714
96,796.3236374378205,6.190711550624186,115.97188892364503,2.889533114132793,0.1,0.001,ovr,2,poly,"{'C': 0.1, 'coef0': 0.001, 'decision_function_shape': 'ovr', 'degree': 2, 'kernel': 'poly'}",0.8164268803496632,0.8040429794208707,0.822983063194318,0.818794390821344,0.8171553451101803,0.8158805317792751,0.006340154866337308,45,2021-05-03 19:41:18.763714
97,803.0950747489929,3.5769307321440333,110.83813304901123,5.723396657147228,0.1,0.001,ovr,3,poly,"{'C': 0.1, 'coef0': 0.001, 'decision_function_shape': 'ovr', 'degree': 3, 'kernel': 'poly'}",0.6792933891822983,0.679111272992169,0.6985977053360044,0.6958659624840648,0.6927699872518667,0.6891276634492807,0.008311364726071272,53,2021-05-03 19:41:18.763714
98,902.8255516052246,11.44578837176187,113.70065741539001,10.206370058713144,0.1,0.001,ovr,4,poly,"{'C': 0.1, 'coef0': 0.001, 'decision_function_shape': 'ovr', 'degree': 4, 'kernel': 'poly'}",0.5046439628482973,0.48989255144782373,0.5113822618830814,0.5108359133126935,0.5090147514114005,0.5051538881806593,0.007989402182668769,63,2021-05-03 19:41:18.763714
99,780.7131621837616,9.224727884978613,116.8005199432373,14.527210100297495,0.1,0.001,ovo,2,poly,"{'C': 0.1, 'coef0': 0.001, 'decision_function_shape': 'ovo', 'degree': 2, 'kernel': 'poly'}",0.8164268803496632,0.8040429794208707,0.822983063194318,0.818794390821344,0.8171553451101803,0.8158805317792751,0.006340154866337308,45,2021-05-03 19:41:18.763714
100,802.2231010437011,34.65797079764536,108.79206099510193,12.578796739927371,0.1,0.001,ovo,3,poly,"{'C': 0.1, 'coef0': 0.001, 'decision_function_shape': 'ovo', 'degree': 3, 'kernel': 'poly'}",0.6792933891822983,0.679111272992169,0.6985977053360044,0.6958659624840648,0.6927699872518667,0.6891276634492807,0.008311364726071272,53,2021-05-03 19:41:18.763714
101,898.5200484275817,38.32260975072835,116.47058973312377,12.77904835972948,0.1,0.001,ovo,4,poly,"{'C': 0.1, 'coef0': 0.001, 'decision_function_shape': 'ovo', 'degree': 4, 'kernel': 'poly'}",0.5046439628482973,0.48989255144782373,0.5113822618830814,0.5108359133126935,0.5090147514114005,0.5051538881806593,0.007989402182668769,63,2021-05-03 19:41:18.763714
102,758.5973812103272,34.545796734774754,111.08291010856628,7.961761897006846,0.1,0.01,ovr,2,poly,"{'C': 0.1, 'coef0': 0.01, 'decision_function_shape': 'ovr', 'degree': 2, 'kernel': 'poly'}",0.8339100346020761,0.82243671462393,0.8415589145875069,0.8350027317428519,0.8384629393553088,0.8342742669823346,0.006502338640085957,41,2021-05-03 19:41:18.763714
103,792.9676171779632,38.51098912443516,113.55079045295716,8.283970598641318,0.1,0.01,ovr,3,poly,"{'C': 0.1, 'coef0': 0.01, 'decision_function_shape': 'ovr', 'degree': 3, 'kernel': 'poly'}",0.6880349663085048,0.6860316882170825,0.706792933891823,0.7002367510471681,0.6978692405754872,0.6957931160080131,0.00775276129305413,51,2021-05-03 19:41:18.763714
104,888.6145490646362,29.502723708744842,115.13128685951233,5.54610933760433,0.1,0.01,ovr,4,poly,"{'C': 0.1, 'coef0': 0.01, 'decision_function_shape': 'ovr', 'degree': 4, 'kernel': 'poly'}",0.517756328537607,0.5048260790384265,0.5285011837552358,0.5263157894736842,0.5212165361500637,0.5197231833910034,0.008349108741952669,61,2021-05-03 19:41:18.763714
105,751.7041357994079,48.951707109565874,116.66745343208314,6.257113482094201,0.1,0.01,ovo,2,poly,"{'C': 0.1, 'coef0': 0.01, 'decision_function_shape': 'ovo', 'degree': 2, 'kernel': 'poly'}",0.8339100346020761,0.82243671462393,0.8415589145875069,0.8350027317428519,0.8384629393553088,0.8342742669823346,0.006502338640085957,41,2021-05-03 19:41:18.763714
106,792.4903900623322,38.809884986683095,101.27732362747193,11.061993400928197,0.1,0.01,ovo,3,poly,"{'C': 0.1, 'coef0': 0.01, 'decision_function_shape': 'ovo', 'degree': 3, 'kernel': 'poly'}",0.6880349663085048,0.6860316882170825,0.706792933891823,0.7002367510471681,0.6978692405754872,0.6957931160080131,0.00775276129305413,51,2021-05-03 19:41:18.763714
107,909.2023773670196,53.143234327929285,102.83023128509521,12.445338562236413,0.1,0.01,ovo,4,poly,"{'C': 0.1, 'coef0': 0.01, 'decision_function_shape': 'ovo', 'degree': 4, 'kernel': 'poly'}",0.517756328537607,0.5048260790384265,0.5285011837552358,0.5263157894736842,0.5212165361500637,0.5197231833910034,0.008349108741952669,61,2021-05-03 19:41:18.763714
108,599.1129306793213,38.20837106522581,107.62866239547729,11.383580825588545,0.1,0.1,ovr,2,poly,"{'C': 0.1, 'coef0': 0.1, 'decision_function_shape': 'ovr', 'degree': 2, 'kernel': 'poly'}",0.8954653068657804,0.8890912402112547,0.9058459297031506,0.8945547259151339,0.9022036059005646,0.8974321617191767,0.005920765114176979,33,2021-05-03 19:41:18.763714
109,700.1579494953155,50.48096657008545,99.37961840629578,12.38968119208967,0.1,0.1,ovr,3,poly,"{'C': 0.1, 'coef0': 0.1, 'decision_function_shape': 'ovr', 'degree': 3, 'kernel': 'poly'}",0.7996721908577673,0.7841923146967765,0.8045893279912584,0.7989437260972501,0.7960298670551812,0.7966854853396468,0.006826418356349216,49,2021-05-03 19:41:18.763714
110,772.0276008129119,29.762964175856435,103.6301519870758,7.913327687704342,0.1,0.1,ovr,4,poly,"{'C': 0.1, 'coef0': 0.1, 'decision_function_shape': 'ovr', 'degree': 4, 'kernel': 'poly'}",0.6501547987616099,0.6421416863959206,0.6714623930067383,0.6632671644509197,0.6623565835002732,0.6578765252230923,0.01040111464554896,59,2021-05-03 19:41:18.763714
111,604.0623805522919,14.868963563787807,109.09273252487182,2.707256810301234,0.1,0.1,ovo,2,poly,"{'C': 0.1, 'coef0': 0.1, 'decision_function_shape': 'ovo', 'degree': 2, 'kernel': 'poly'}",0.8954653068657804,0.8890912402112547,0.9058459297031506,0.8945547259151339,0.9022036059005646,0.8974321617191767,0.005920765114176979,33,2021-05-03 19:41:18.763714
112,704.0066525936127,16.069189492834234,104.20426740646363,9.125575226260572,0.1,0.1,ovo,3,poly,"{'C': 0.1, 'coef0': 0.1, 'decision_function_shape': 'ovo', 'degree': 3, 'kernel': 'poly'}",0.7996721908577673,0.7841923146967765,0.8045893279912584,0.7989437260972501,0.7960298670551812,0.7966854853396468,0.006826418356349216,49,2021-05-03 19:41:18.763714
113,790.8393941402435,46.73315190235961,101.59907965660095,13.558135129811175,0.1,0.1,ovo,4,poly,"{'C': 0.1, 'coef0': 0.1, 'decision_function_shape': 'ovo', 'degree': 4, 'kernel': 'poly'}",0.6501547987616099,0.6421416863959206,0.6714623930067383,0.6632671644509197,0.6623565835002732,0.6578765252230923,0.01040111464554896,59,2021-05-03 19:41:18.763714
114,278.2504198551178,23.934955559564056,84.17439241409302,15.460968883244622,0.1,1,ovr,2,poly,"{'C': 0.1, 'coef0': 1, 'decision_function_shape': 'ovr', 'degree': 2, 'kernel': 'poly'}",0.9703150610089237,0.966308504826079,0.971043525769441,0.972864687670734,0.9745037333818977,0.9710071025314152,0.002765289076103072,29,2021-05-03 19:41:18.763714
115,198.2747658252716,25.719339276879708,55.57157273292542,6.432654847639993,0.1,1,ovr,3,poly,"{'C': 0.1, 'coef0': 1, 'decision_function_shape': 'ovr', 'degree': 3, 'kernel': 'poly'}",0.9972682571480604,0.9954470952467674,0.9987251866690949,0.9969040247678018,0.9985430704789656,0.9973775268621381,0.0011947710411114195,17,2021-05-03 19:41:18.763714
116,157.50403409004213,17.674520520056515,44.243987512588504,3.906765163317914,0.1,1,ovr,4,poly,"{'C': 0.1, 'coef0': 1, 'decision_function_shape': 'ovr', 'degree': 4, 'kernel': 'poly'}",0.9996357676197414,0.9996357676197414,0.9998178838098707,0.9996357676197414,0.9996357676197414,0.9996721908577673,7.284647605172445e-05,9,2021-05-03 19:41:18.763714
117,279.2080340862274,30.003511045023952,82.39716935157776,8.720081677189652,0.1,1,ovo,2,poly,"{'C': 0.1, 'coef0': 1, 'decision_function_shape': 'ovo', 'degree': 2, 'kernel': 'poly'}",0.9703150610089237,0.966308504826079,0.971043525769441,0.972864687670734,0.9745037333818977,0.9710071025314152,0.002765289076103072,29,2021-05-03 19:41:18.763714
118,198.42749633789063,17.12845173201836,57.24412679672241,8.021723912492552,0.1,1,ovo,3,poly,"{'C': 0.1, 'coef0': 1, 'decision_function_shape': 'ovo', 'degree': 3, 'kernel': 'poly'}",0.9972682571480604,0.9954470952467674,0.9987251866690949,0.9969040247678018,0.9985430704789656,0.9973775268621381,0.0011947710411114195,17,2021-05-03 19:41:18.763714
119,152.15416445732117,14.949184588354512,43.93841319084167,1.972725820045322,0.1,1,ovo,4,poly,"{'C': 0.1, 'coef0': 1, 'decision_function_shape': 'ovo', 'degree': 4, 'kernel': 'poly'}",0.9996357676197414,0.9996357676197414,0.9998178838098707,0.9996357676197414,0.9996357676197414,0.9996721908577673,7.284647605172445e-05,9,2021-05-03 19:41:18.763714
120,267.1307354450226,26.01078624939809,55.49242277145386,7.968201689969424,1,0.0001,ovr,2,poly,"{'C': 1, 'coef0': 0.0001, 'decision_function_shape': 'ovr', 'degree': 2, 'kernel': 'poly'}",0.9989073028592241,0.9998178838098707,0.9990894190493534,0.9990894190493534,0.9994536514296121,0.9992715352394829,0.0003257793447459327,15,2021-05-03 19:41:18.763714
121,379.50169439315795,35.79758555710643,63.28026614189148,6.962640089107247,1,0.0001,ovr,3,poly,"{'C': 1, 'coef0': 0.0001, 'decision_function_shape': 'ovr', 'degree': 3, 'kernel': 'poly'}",0.97650701147332,0.9739573848115097,0.980149335275906,0.977781824804225,0.9739573848115097,0.9764705882352942,0.0023616193884461426,25,2021-05-03 19:41:18.763714
122,524.8086981773376,22.945884226642278,74.50064096450805,6.622497459752333,1,0.0001,ovr,4,poly,"{'C': 1, 'coef0': 0.0001, 'decision_function_shape': 'ovr', 'degree': 4, 'kernel': 'poly'}",0.8430158441085414,0.8559460936077218,0.8548533964669459,0.8648697869240576,0.8539428155162994,0.8545255873247133,0.006956170989384467,39,2021-05-03 19:41:18.763714
123,274.38984389305114,14.911015275466566,61.31398696899414,1.7947809626466091,1,0.0001,ovo,2,poly,"{'C': 1, 'coef0': 0.0001, 'decision_function_shape': 'ovo', 'degree': 2, 'kernel': 'poly'}",0.9989073028592241,0.9998178838098707,0.9990894190493534,0.9990894190493534,0.9994536514296121,0.9992715352394829,0.0003257793447459327,15,2021-05-03 19:41:18.763714
124,377.0441255092621,15.45528298013997,59.51236267089844,11.011556393988968,1,0.0001,ovo,3,poly,"{'C': 1, 'coef0': 0.0001, 'decision_function_shape': 'ovo', 'degree': 3, 'kernel': 'poly'}",0.97650701147332,0.9739573848115097,0.980149335275906,0.977781824804225,0.9739573848115097,0.9764705882352942,0.0023616193884461426,25,2021-05-03 19:41:18.763714
125,550.1589301586151,40.69992730830746,80.06445007324218,8.637502426733112,1,0.0001,ovo,4,poly,"{'C': 1, 'coef0': 0.0001, 'decision_function_shape': 'ovo', 'degree': 4, 'kernel': 'poly'}",0.8430158441085414,0.8559460936077218,0.8548533964669459,0.8648697869240576,0.8539428155162994,0.8545255873247133,0.006956170989384467,39,2021-05-03 19:41:18.763714
126,256.94565706253053,27.558756668948174,56.23376054763794,4.872073565736963,1,0.001,ovr,2,poly,"{'C': 1, 'coef0': 0.001, 'decision_function_shape': 'ovr', 'degree': 2, 'kernel': 'poly'}",0.9989073028592241,0.9998178838098707,0.9990894190493534,0.9990894190493534,0.9996357676197414,0.9993079584775086,0.0003531363946397056,13,2021-05-03 19:41:18.763714
127,358.4018952846527,32.18583823638517,61.90196700096131,3.590432474620458,1,0.001,ovr,3,poly,"{'C': 1, 'coef0': 0.001, 'decision_function_shape': 'ovr', 'degree': 3, 'kernel': 'poly'}",0.9766891276634493,0.9750500819522856,0.9810599162265525,0.978328173374613,0.9739573848115097,0.977016936805682,0.002506067005903407,23,2021-05-03 19:41:18.763714
128,538.1999506473542,18.99360469897022,78.37099900245667,10.630586083575588,1,0.001,ovr,4,poly,"{'C': 1, 'coef0': 0.001, 'decision_function_shape': 'ovr', 'degree': 4, 'kernel': 'poly'}",0.8450191221999636,0.8574030231287562,0.8563103259879803,0.866326716445092,0.8559460936077218,0.8562010562739027,0.006768845007651701,37,2021-05-03 19:41:18.763714
129,272.17137894630434,14.143513041216703,54.315593576431276,7.433646117596807,1,0.001,ovo,2,poly,"{'C': 1, 'coef0': 0.001, 'decision_function_shape': 'ovo', 'degree': 2, 'kernel': 'poly'}",0.9989073028592241,0.9998178838098707,0.9990894190493534,0.9990894190493534,0.9996357676197414,0.9993079584775086,0.0003531363946397056,13,2021-05-03 19:41:18.763714
130,379.73470430374147,22.622376703427147,59.88094034194946,6.384354175453994,1,0.001,ovo,3,poly,"{'C': 1, 'coef0': 0.001, 'decision_function_shape': 'ovo', 'degree': 3, 'kernel': 'poly'}",0.9766891276634493,0.9750500819522856,0.9810599162265525,0.978328173374613,0.9739573848115097,0.977016936805682,0.002506067005903407,23,2021-05-03 19:41:18.763714
131,533.3671052932739,42.20792789313044,77.55561013221741,7.660131443896087,1,0.001,ovo,4,poly,"{'C': 1, 'coef0': 0.001, 'decision_function_shape': 'ovo', 'degree': 4, 'kernel': 'poly'}",0.8450191221999636,0.8574030231287562,0.8563103259879803,0.866326716445092,0.8559460936077218,0.8562010562739027,0.006768845007651701,37,2021-05-03 19:41:18.763714
132,251.72717213630676,8.889671956218224,51.91635723114014,4.872932309152613,1,0.01,ovr,2,poly,"{'C': 1, 'coef0': 0.01, 'decision_function_shape': 'ovr', 'degree': 2, 'kernel': 'poly'}",0.9990894190493534,0.9996357676197414,0.9994536514296121,0.9990894190493534,0.9996357676197414,0.9993808049535604,0.00024703441934531377,11,2021-05-03 19:41:18.763714
133,371.7093282222748,19.98088029557235,65.66126713752746,7.201371856601827,1,0.01,ovr,3,poly,"{'C': 1, 'coef0': 0.01, 'decision_function_shape': 'ovr', 'degree': 3, 'kernel': 'poly'}",0.9808778000364232,0.9803314514660353,0.98433800764888,0.9812420324166818,0.977781824804225,0.980914223274449,0.0020967893592605297,21,2021-05-03 19:41:18.763714
134,494.3000386238098,22.81461411823599,73.16626114845276,9.240883389192195,1,0.01,ovr,4,poly,"{'C': 1, 'coef0': 0.01, 'decision_function_shape': 'ovr', 'degree': 4, 'kernel': 'poly'}",0.8583136040794027,0.8723365507193589,0.8739755964305227,0.8794390821344017,0.8734292478601348,0.8714988162447641,0.007035061443993929,35,2021-05-03 19:41:18.763714
135,272.3358099937439,15.138259485990917,53.4672251701355,8.04221990053621,1,0.01,ovo,2,poly,"{'C': 1, 'coef0': 0.01, 'decision_function_shape': 'ovo', 'degree': 2, 'kernel': 'poly'}",0.9990894190493534,0.9996357676197414,0.9994536514296121,0.9990894190493534,0.9996357676197414,0.9993808049535604,0.00024703441934531377,11,2021-05-03 19:41:18.763714
136,362.4900718688965,36.66178055256204,61.128673791885376,4.606916599829205,1,0.01,ovo,3,poly,"{'C': 1, 'coef0': 0.01, 'decision_function_shape': 'ovo', 'degree': 3, 'kernel': 'poly'}",0.9808778000364232,0.9803314514660353,0.98433800764888,0.9812420324166818,0.977781824804225,0.980914223274449,0.0020967893592605297,21,2021-05-03 19:41:18.763714
137,513.3541266441346,29.828406283629626,76.93492178916931,8.707836401073411,1,0.01,ovo,4,poly,"{'C': 1, 'coef0': 0.01, 'decision_function_shape': 'ovo', 'degree': 4, 'kernel': 'poly'}",0.8583136040794027,0.8723365507193589,0.8739755964305227,0.8794390821344017,0.8734292478601348,0.8714988162447641,0.007035061443993929,35,2021-05-03 19:41:18.763714
138,188.4258143901825,15.54582999103945,45.682125854492185,3.116638784219856,1,0.1,ovr,2,poly,"{'C': 1, 'coef0': 0.1, 'decision_function_shape': 'ovr', 'degree': 2, 'kernel': 'poly'}",0.9996357676197414,0.9998178838098707,1.0,0.9996357676197414,0.9998178838098707,0.9997814605718448,0.00013628327760969292,7,2021-05-03 19:41:18.763714
139,253.55283608436585,10.652432752918289,47.56098437309265,3.734807535420197,1,0.1,ovr,3,poly,"{'C': 1, 'coef0': 0.1, 'decision_function_shape': 'ovr', 'degree': 3, 'kernel': 'poly'}",0.9965397923875432,0.9969040247678018,0.996357676197414,0.9958113276270261,0.9954470952467674,0.9962119832453105,0.0005202278949949073,19,2021-05-03 19:41:18.763714
140,388.0882532596588,13.515295239849365,60.38638272285461,8.38786141415189,1,0.1,ovr,4,poly,"{'C': 1, 'coef0': 0.1, 'decision_function_shape': 'ovr', 'degree': 4, 'kernel': 'poly'}",0.972864687670734,0.9712256419595702,0.9766891276634493,0.9739573848115097,0.9695865962484065,0.9728646876707339,0.00241878823032366,27,2021-05-03 19:41:18.763714
141,187.31164288520813,11.621523964065759,47.124033498764035,7.024204063814112,1,0.1,ovo,2,poly,"{'C': 1, 'coef0': 0.1, 'decision_function_shape': 'ovo', 'degree': 2, 'kernel': 'poly'}",0.9996357676197414,0.9998178838098707,1.0,0.9996357676197414,0.9998178838098707,0.9997814605718448,0.00013628327760969292,7,2021-05-03 19:41:18.763714
142,261.60388627052305,25.758207435323023,56.098458480834964,6.479410822014338,1,0.1,ovo,3,poly,"{'C': 1, 'coef0': 0.1, 'decision_function_shape': 'ovo', 'degree': 3, 'kernel': 'poly'}",0.9965397923875432,0.9969040247678018,0.996357676197414,0.9958113276270261,0.9954470952467674,0.9962119832453105,0.0005202278949949073,19,2021-05-03 19:41:18.763714
143,364.3395969390869,32.49264686523429,57.98222994804382,6.833582965174005,1,0.1,ovo,4,poly,"{'C': 1, 'coef0': 0.1, 'decision_function_shape': 'ovo', 'degree': 4, 'kernel': 'poly'}",0.972864687670734,0.9712256419595702,0.9766891276634493,0.9739573848115097,0.9695865962484065,0.9728646876707339,0.00241878823032366,27,2021-05-03 19:41:18.763714
144,100.45531711578369,10.98338161155054,31.717465925216676,3.9256169070940157,1,1,ovr,2,poly,"{'C': 1, 'coef0': 1, 'decision_function_shape': 'ovr', 'degree': 2, 'kernel': 'poly'}",1.0,1.0,1.0,1.0,1.0,1.0,0.0,1,2021-05-03 19:41:18.763714
145,88.38298048973084,8.52091100131706,23.23476662635803,2.8967189516289347,1,1,ovr,3,poly,"{'C': 1, 'coef0': 1, 'decision_function_shape': 'ovr', 'degree': 3, 'kernel': 'poly'}",1.0,1.0,1.0,0.9998178838098707,1.0,0.9999635767619741,7.284647605172445e-05,3,2021-05-03 19:41:18.763714
146,100.19619975090026,10.06404725999422,23.473452043533324,2.4794444880722355,1,1,ovr,4,poly,"{'C': 1, 'coef0': 1, 'decision_function_shape': 'ovr', 'degree': 4, 'kernel': 'poly'}",1.0,1.0,1.0,0.9998178838098707,1.0,0.9999635767619741,7.284647605172445e-05,3,2021-05-03 19:41:18.763714
147,94.10280990600586,12.990663753745567,30.977380180358885,4.869624690796536,1,1,ovo,2,poly,"{'C': 1, 'coef0': 1, 'decision_function_shape': 'ovo', 'degree': 2, 'kernel': 'poly'}",1.0,1.0,1.0,1.0,1.0,1.0,0.0,1,2021-05-03 19:41:18.763714
148,89.15587787628174,11.724919333030456,21.209117937088013,1.9529137402839134,1,1,ovo,3,poly,"{'C': 1, 'coef0': 1, 'decision_function_shape': 'ovo', 'degree': 3, 'kernel': 'poly'}",1.0,1.0,1.0,0.9998178838098707,1.0,0.9999635767619741,7.284647605172445e-05,3,2021-05-03 19:41:18.763714
149,74.03821601867676,7.2586036784989645,11.971338558197022,2.845379730764608,1,1,ovo,4,poly,"{'C': 1, 'coef0': 1, 'decision_function_shape': 'ovo', 'degree': 4, 'kernel': 'poly'}",1.0,1.0,1.0,0.9998178838098707,1.0,0.9999635767619741,7.284647605172445e-05,3,2021-05-03 19:41:18.763714
